<?xml version="1.0" encoding="UTF-8" standalone="no"?>
<!-- Created with Inkscape (http://www.inkscape.org/) -->

<svg
   width="850"
   height="253.00002"
   viewBox="0 0 224.89582 66.939586"
   version="1.1"
   id="svg1"
   xml:space="preserve"
   inkscape:version="1.3.2 (091e20ef0f, 2023-11-25, custom)"
   sodipodi:docname="banner_2.svg"
   inkscape:export-filename="banner_2.png"
   inkscape:export-xdpi="96"
   inkscape:export-ydpi="96"
   xmlns:inkscape="http://www.inkscape.org/namespaces/inkscape"
   xmlns:sodipodi="http://sodipodi.sourceforge.net/DTD/sodipodi-0.dtd"
   xmlns="http://www.w3.org/2000/svg"
   xmlns:svg="http://www.w3.org/2000/svg"><sodipodi:namedview
     id="namedview1"
     pagecolor="#ffffff"
     bordercolor="#000000"
     borderopacity="0.25"
     inkscape:showpageshadow="2"
     inkscape:pageopacity="0.0"
     inkscape:pagecheckerboard="0"
     inkscape:deskcolor="#d1d1d1"
     inkscape:document-units="mm"
     inkscape:zoom="0.91711865"
     inkscape:cx="275.86398"
     inkscape:cy="160.2846"
     inkscape:window-width="1894"
     inkscape:window-height="1010"
     inkscape:window-x="10"
     inkscape:window-y="54"
     inkscape:window-maximized="1"
     inkscape:current-layer="layer1-5"
     inkscape:export-bgcolor="#00000000" /><defs
     id="defs1"><clipPath
       clipPathUnits="userSpaceOnUse"
       id="clipPath10"><rect
         style="fill:none;fill-opacity:0.714966;stroke:#000000;stroke-width:1.92523;stroke-dasharray:none;stroke-dashoffset:0;stroke-opacity:0.973875"
         id="rect11"
         width="1440.781"
         height="1144.0551"
         x="271.90363"
         y="-66.884705"
         ry="0" /></clipPath><clipPath
       clipPathUnits="userSpaceOnUse"
       id="clipPath10-5"><rect
         style="fill:none;fill-opacity:0.714966;stroke:#000000;stroke-width:1.92523;stroke-dasharray:none;stroke-dashoffset:0;stroke-opacity:0.973875"
         id="rect11-3"
         width="1440.781"
         height="1144.0551"
         x="271.90363"
         y="-66.884705"
         ry="0" /></clipPath><clipPath
       clipPathUnits="userSpaceOnUse"
       id="clipPath10-53"><rect
         style="fill:none;fill-opacity:0.714966;stroke:#000000;stroke-width:1.92523;stroke-dasharray:none;stroke-dashoffset:0;stroke-opacity:0.973875"
         id="rect11-5"
         width="1440.781"
         height="1144.0551"
         x="271.90363"
         y="-66.884705"
         ry="0" /></clipPath></defs><g
     inkscape:label="Layer 1"
     inkscape:groupmode="layer"
     id="layer1"
     transform="translate(18.226299,-43.241262)"><g
       inkscape:label="Layer 1"
       id="layer1-5"
       transform="translate(-18.395295,130.3694)"><rect
         style="fill:#fffbb1;fill-opacity:1;stroke:#340e00;stroke-width:0.841755;stroke-opacity:1"
         id="rect1"
         width="224.05408"
         height="66.097832"
         x="0.58987308"
         y="-86.70726"
         ry="4.2752328" /><g
         id="g1"
         transform="translate(-15.000209)"><g
           id="text1-9"
           style="font-size:25.2874px;line-height:0.6;font-family:OpenRing;-inkscape-font-specification:OpenRing;letter-spacing:0px;word-spacing:0px;fill:#340e00;stroke:none;stroke-width:3.07203;stroke-opacity:1"
           aria-label="Academia&#10;de&#10;Detectives"
           transform="translate(-17.778014,43.689542)"><path
             style="text-align:center;text-anchor:middle;stroke:none;stroke-opacity:1"
             d="m 148.64476,-121.10898 h 0.25929 1.16065 l 5.07477,16.40965 0.88901,0.40746 v 0.4445 h -3.65482 v -0.4445 l 0.90136,-0.40746 -2.18549,-7.26025 h -3.77829 l -2.1114,7.26025 0.88901,0.40746 v 0.4445 h -0.24695 -2.70407 -0.25929 v -0.4445 l 0.88901,-0.40746 z m -1.07422,8.211 h 3.235 l -1.66689,-5.3958 z m 15.57002,5.61805 q -1.04953,0.45685 -2.43243,0.61736 -1.37056,0.14817 -2.67938,-0.22225 -1.30882,-0.38277 -2.17313,-1.53107 -0.85197,-1.14831 -0.87667,-3.17327 -0.0247,-2.55591 1.03718,-3.92646 1.06187,-1.37056 2.90163,-1.61751 1.85211,-0.24695 4.2228,0.44451 v 2.28426 h -0.44451 q -0.12347,-0.79023 -0.59267,-1.25943 -0.45685,-0.48155 -1.53107,-0.59268 -1.81506,-0.17286 -2.76581,0.9631 -0.95075,1.13596 -0.98779,3.48195 -0.0123,1.51873 0.4692,2.59295 0.48155,1.07422 1.44464,1.50638 0.9631,0.43216 2.30896,0.0494 1.37056,-0.39512 1.65454,-2.06201 h 0.44451 v 2.44478 z m 6.13664,-9.70503 3.23501,9.37165 0.88901,0.40746 v 0.44451 h -3.65482 v -0.44451 l 0.88901,-0.40746 -0.83962,-2.44478 h -3.12388 l -0.85197,2.44478 0.90136,0.40746 v 0.44451 h -2.96337 v -0.44451 l 0.88901,-0.40746 3.22266,-9.37165 z m -2.28426,6.03786 h 2.48182 l -1.24709,-3.60543 z m 6.96391,-6.03786 q 0,0 3.84003,0 2.38304,0 3.65482,1.30882 1.27178,1.29647 1.23473,4.00055 -0.0247,2.61764 -1.41994,3.76594 -1.39525,1.14831 -3.46961,1.14831 -3.84003,0 -3.84003,0 v -0.44451 l 0.88901,-0.40746 v -8.51968 l -0.88901,-0.40747 z m 2.65468,9.37165 q 0,0 1.22239,0 1.74098,0 2.37069,-1.18535 0.64207,-1.19769 0.64207,-3.11153 0,-1.41995 -0.43216,-2.40774 -0.41981,-0.98779 -1.12361,-1.46934 -0.69145,-0.49389 -1.46934,-0.49389 h -1.21004 z m 13.38454,-3.48196 H 189.638 l -0.25929,-0.4692 h -2.8152 v 3.95116 h 3.46961 l 0.75318,-2.1114 h 0.44451 v 2.96337 h -7.44546 v -0.44451 l 0.88901,-0.40746 v -8.51968 l -0.88901,-0.40747 v -0.4445 h 7.44546 v 2.5806 h -0.44451 l -0.87666,-1.74098 h -3.34613 v 3.64247 h 2.8152 l 0.25929,-0.48154 h 0.35807 z m 8.37152,4.33393 -2.97572,-7.68006 v 6.82809 l 0.88901,0.40746 v 0.44451 h -3.67951 v -0.44451 l 0.88901,-0.40746 v -8.51968 l -0.88901,-0.40747 v -0.4445 h 3.14858 l 2.61764,7.038 2.59294,-7.038 h 3.13623 v 0.4445 l -0.87666,0.40747 v 8.51968 l 0.87666,0.40746 v 0.44451 h -3.67951 v -0.44451 l 0.88901,-0.40746 v -6.85279 z m 7.02565,-10.22362 v 0.4445 l 0.88901,0.40747 v 8.51968 l -0.88901,0.40746 v 0.44451 h 3.67951 v -0.44451 l -0.88901,-0.40746 v -8.51968 l 0.88901,-0.40747 v -0.4445 z m 9.90258,0 3.23501,9.37165 0.88901,0.40746 v 0.44451 h -3.65482 v -0.44451 l 0.88901,-0.40746 -0.83962,-2.44478 h -3.12388 l -0.85197,2.44478 0.90136,0.40746 v 0.44451 h -2.96337 v -0.44451 l 0.88901,-0.40746 3.22266,-9.37165 z m -2.28426,6.03786 h 2.48182 l -1.24709,-3.60543 z"
             id="path1-1" /><path
             style="text-align:center;text-anchor:middle;stroke:none;stroke-opacity:1"
             d="m 172.62951,-101.81252 q 0,0 3.84003,0 2.38304,0 3.65482,1.30882 1.27178,1.296473 1.23473,4.000546 -0.0247,2.617641 -1.41994,3.765945 -1.39525,1.148305 -3.46961,1.148305 -3.84003,0 -3.84003,0 v -0.444505 l 0.88901,-0.407463 v -8.519678 l -0.88901,-0.40747 z m 2.65468,9.371648 q 0,0 1.22239,0 1.74098,0 2.37069,-1.185347 0.64207,-1.197694 0.64207,-3.111535 0,-1.419947 -0.43216,-2.407736 -0.41981,-0.98779 -1.12361,-1.46934 -0.69145,-0.49389 -1.46934,-0.49389 h -1.21004 z m 13.38454,-3.481956 h -0.35807 l -0.2593,-0.4692 h -2.81519 v 3.951156 h 3.4696 l 0.75319,-2.111399 h 0.44451 v 2.963367 h -7.44546 v -0.444505 l 0.88901,-0.407463 v -8.519678 l -0.88901,-0.40747 v -0.4445 h 7.44546 v 2.580599 h -0.44451 l -0.87666,-1.740979 h -3.34613 v 3.642472 h 2.81519 l 0.2593,-0.481547 h 0.35807 z"
             id="path2-2" /><path
             style="text-align:center;text-anchor:middle;stroke:none;stroke-opacity:1"
             d="m 137.18023,-90.764099 q 0,0 5.53162,0.01235 1.72863,0 2.86459,0.987789 1.1483,0.975442 1.70393,2.90163 0.55563,1.913842 0.55563,4.667304 0,3.08684 -0.6791,5.025376 -0.67911,1.938536 -1.75333,2.802852 -1.06187,0.851968 -2.29661,0.876662 -0.87666,0.01235 -3.40787,0 -2.51886,0 -2.51886,0 v -0.444505 l 0.88901,-0.407463 v -15.570024 l -0.88901,-0.407463 z m 2.65468,16.421992 q 0,0 1.24709,0 0,0 0.87666,0 1.93853,0 2.98806,-2.086704 1.04953,-2.086704 1.04953,-5.988471 0,-2.321304 -0.37042,-3.815335 -0.35808,-1.494031 -0.9631,-2.24722 -0.59267,-0.765537 -1.28412,-1.024831 -0.67911,-0.259295 -1.45699,-0.246948 h -2.1114 z m 15.55768,-6.408281 h -0.35807 l -0.2593,-0.4692 h -2.8152 v 3.951156 h 3.46961 l 0.75319,-2.111399 h 0.44451 v 2.963367 h -7.44546 v -0.444505 l 0.88901,-0.407463 v -8.51968 l -0.88901,-0.407463 v -0.444505 h 7.44546 v 2.580599 h -0.44451 l -0.87666,-1.740978 h -3.34614 v 3.642472 h 2.8152 l 0.2593,-0.481548 h 0.35807 z m 8.14926,-5.037724 v 8.51968 l 0.88901,0.407463 v 0.444505 h -3.67952 v -0.444505 l 0.87667,-0.407463 v -8.51968 h -1.76568 l -0.75319,1.728631 h -0.4445 v -2.580599 h 7.81588 v 2.580599 h -0.4445 l -0.75319,-1.728631 z m 10.11249,5.037724 h -0.35807 l -0.2593,-0.4692 h -2.8152 v 3.951156 h 3.46961 l 0.75319,-2.111399 h 0.44451 v 2.963367 h -7.44546 v -0.444505 l 0.88901,-0.407463 v -8.51968 l -0.88901,-0.407463 v -0.444505 h 7.44546 v 2.580599 h -0.44451 l -0.87666,-1.740978 h -3.34614 v 3.642472 h 2.8152 l 0.2593,-0.481548 h 0.35807 z m 10.58169,3.815335 q -1.04953,0.456853 -2.43243,0.617368 -1.37056,0.148169 -2.67938,-0.222252 -1.30882,-0.382769 -2.17313,-1.531073 -0.85197,-1.148305 -0.87667,-3.173273 -0.0247,-2.555904 1.03718,-3.926461 1.06187,-1.370557 2.90163,-1.617504 1.85211,-0.246948 4.2228,0.444505 v 2.284262 h -0.44451 q -0.12347,-0.790232 -0.59267,-1.259431 -0.45685,-0.481547 -1.53107,-0.592674 -1.81506,-0.172863 -2.76581,0.963095 -0.95075,1.135957 -0.98779,3.481956 -0.0123,1.518726 0.4692,2.592946 0.48155,1.074221 1.44464,1.506378 0.9631,0.432158 2.30896,0.04939 1.37055,-0.395116 1.65454,-2.06201 h 0.44451 z m 6.85278,-8.853059 v 8.51968 l 0.88901,0.407463 v 0.444505 h -3.67951 v -0.444505 l 0.87666,-0.407463 v -8.51968 h -1.76567 l -0.75319,1.728631 h -0.4445 v -2.580599 h 7.81588 v 2.580599 h -0.44451 l -0.75319,-1.728631 z m 3.90177,-0.851968 v 0.444505 l 0.88901,0.407463 v 8.51968 l -0.88901,0.407463 v 0.444505 h 3.67951 v -0.444505 l -0.88901,-0.407463 v -8.51968 l 0.88901,-0.407463 v -0.444505 z m 8.07518,0 v 0.444505 l -0.88901,0.407463 2.59294,6.50706 2.5806,-6.50706 -0.88901,-0.407463 v -0.444505 h 2.88929 v 0.444505 l -0.88901,0.407463 -3.71656,9.371648 h -0.75319 l -3.71656,-9.371648 -0.88901,-0.407463 v -0.444505 z m 13.12524,5.889692 h -0.35807 l -0.2593,-0.4692 h -2.81519 v 3.951156 h 3.4696 l 0.75319,-2.111399 h 0.44451 v 2.963367 h -7.44546 v -0.444505 l 0.88901,-0.407463 v -8.51968 l -0.88901,-0.407463 v -0.444505 h 7.44546 v 2.580599 h -0.44451 l -0.87666,-1.740978 h -3.34613 v 3.642472 h 2.81519 l 0.2593,-0.481548 h 0.35807 z m 4.90191,-2.543557 q 0.33338,0.358074 0.80258,0.605021 0.48154,0.246947 1.29647,0.567979 1.01248,0.395115 1.60516,0.740841 0.60502,0.345727 1.00013,0.98779 0.39512,0.629715 0.33338,1.617504 -0.0864,1.518726 -1.32117,2.136094 -1.23473,0.605021 -2.86458,0.456852 -1.62986,-0.148168 -2.67938,-0.703799 v -2.494168 h 0.4445 q 0.0247,0.04939 0.0617,0.148169 0.34573,0.802578 0.67911,1.296473 0.33337,0.493894 0.9137,0.679105 0.56798,0.172863 1.28413,0.18521 0.71614,0 1.24708,-0.407463 0.53094,-0.407463 0.49389,-1.382904 -0.0247,-0.629716 -0.77788,-1.135958 -0.74084,-0.518589 -2.09905,-1.12361 -1.11126,-0.395116 -1.69159,-1.185347 -0.56798,-0.790231 -0.53094,-1.716283 0.0494,-0.9384 0.69146,-1.765673 0.29633,-0.358074 0.86431,-0.666758 0.56798,-0.321031 1.35821,-0.432157 1.41995,-0.197558 3.2844,0.543284 v 2.284262 h -0.44451 q -0.13582,-0.88901 -0.58032,-1.35821 -0.44451,-0.4692 -1.4076,-0.530937 -1.00014,-0.07408 -1.61751,0.382768 -0.60502,0.444506 -0.69145,1.12361 -0.0864,0.666758 0.34573,1.148305 z"
             id="path3-7" /></g><g
           id="g10-0"
           transform="translate(-10.555085,-147.78874)"
           style="stroke:none;stroke-opacity:1"><path
             style="color:#000000;fill:#340e00;fill-opacity:1;stroke:none;stroke-width:1.09239;stroke-opacity:1;-inkscape-stroke:none"
             d="m 83.344815,68.56788 c -14.303821,0 -25.916449,11.612629 -25.916449,25.916447 0,14.303823 11.612628,25.914323 25.916449,25.914323 14.303821,0 25.914315,-11.6105 25.914315,-25.914323 0,-14.303818 -11.610494,-25.916447 -25.914315,-25.916447 z m 0,1.476428 c 13.506182,0 24.437885,10.933836 24.437885,24.440019 0,13.506183 -10.931703,24.437883 -24.437885,24.437883 -13.506182,0 -24.440022,-10.9317 -24.440022,-24.437883 0,-13.506183 10.93384,-24.440018 24.440022,-24.440019 z"
             id="path5-6-9" /><path
             style="color:#000000;fill:#340e00;fill-opacity:1;stroke:none;stroke-width:1.09239;stroke-dasharray:8.14267, 0.814267, 0.814267, 0.814267;stroke-opacity:1;-inkscape-stroke:none"
             d="m 83.585905,71.667954 -0.0087,0.812889 c 1.955613,0.01911 3.909827,0.299697 5.790502,0.834225 0.682261,0.193868 1.354428,0.421152 2.014088,0.680608 l 0.298702,-0.759551 C 90.995662,72.966784 90.296982,72.733068 89.589564,72.532048 87.638069,71.977393 85.61356,71.687771 83.585697,71.667954 Z m -0.827822,0.0064 c -0.275729,0.0071 -0.553327,0.01668 -0.829952,0.03414 l 0.05123,0.81289 c 0.265144,-0.01672 0.533161,-0.02731 0.800086,-0.03414 z M 81.10457,71.77468 c -0.602932,0.05782 -1.203526,0.141488 -1.798593,0.247494 -2.125686,0.379144 -4.195518,1.064799 -6.127612,2.029023 l 0.362705,0.727547 c 1.861995,-0.929243 3.859129,-1.588931 5.907846,-1.954349 0.574726,-0.102378 1.152577,-0.183344 1.73246,-0.23896 z m 11.342044,1.779396 -0.324297,0.746749 c 0.243864,0.105743 0.48526,0.217395 0.72541,0.332836 l 0.354174,-0.733948 c -0.249086,-0.119735 -0.501122,-0.235427 -0.755287,-0.345637 z m 1.49563,0.716878 -0.379768,0.721146 c 2.120115,1.112621 4.057277,2.576262 5.709424,4.309807 0.186569,0.195808 0.369686,0.395372 0.548324,0.597399 l 0.610206,-0.539793 c -0.18586,-0.210187 -0.37666,-0.416182 -0.569668,-0.618734 -1.713343,-1.797765 -3.718812,-3.315436 -5.918518,-4.469825 z m -21.497821,0.162152 c -0.242706,0.132066 -0.485293,0.270215 -0.72328,0.411778 l 0.418177,0.699811 c 0.228549,-0.135947 0.459305,-0.267322 0.693403,-0.39471 z m -1.427367,0.847026 c -0.913541,0.587101 -1.784534,1.239419 -2.60508,1.95008 -1.26789,1.098469 -2.415638,2.33563 -3.413708,3.684672 l 0.655006,0.484321 c 0.96213,-1.300466 2.069122,-2.494972 3.292093,-3.554525 0.791554,-0.685547 1.632735,-1.313743 2.513341,-1.879673 z m 29.951024,4.708784 -0.6294,0.518456 c 0.16957,0.205791 0.33599,0.413685 0.49712,0.625136 l 0.64648,-0.492854 c -0.16789,-0.220309 -0.33856,-0.437599 -0.5142,-0.650738 z m 1.00492,1.318545 -0.66355,0.469385 c 1.33115,1.876776 2.36616,3.966833 3.04888,6.163877 0.10792,0.347189 0.20615,0.695552 0.29656,1.047582 l 0.78942,-0.202738 c -0.0938,-0.365336 -0.19739,-0.72807 -0.30936,-1.088118 -0.70846,-2.279868 -1.78104,-4.443103 -3.16195,-6.390037 z m -37.454782,0.281631 c -0.157041,0.227836 -0.310904,0.458773 -0.458726,0.693409 l 0.689143,0.433115 c 0.14153,-0.224641 0.2885,-0.44444 0.439522,-0.66354 z m -0.887564,1.39962 c -0.306272,0.522297 -0.590927,1.058169 -0.853427,1.60231 -0.937901,1.945213 -1.595627,4.024296 -1.945814,6.155342 l 0.804346,0.132282 c 0.337384,-2.053061 0.97193,-4.059175 1.87541,-5.933453 v -0.0022 c 0.253302,-0.52494 0.52724,-1.040872 0.82142,-1.542569 z m 42.005676,6.603393 -0.79581,0.174952 c 0.0569,0.260333 0.10891,0.5212 0.15574,0.78302 l 0.80222,-0.14295 c -0.0488,-0.272529 -0.10312,-0.545057 -0.16215,-0.815022 z m 0.29443,1.632179 -0.80649,0.115212 c 0.14953,1.039911 0.22174,2.091188 0.2219,3.142746 5.8e-4,1.943219 -0.25377,3.887926 -0.76169,5.762768 -0.18857,0.69679 -0.41112,1.38427 -0.66781,2.05889 l 0.76169,0.29017 c 0.26629,-0.69988 0.49781,-1.41293 0.69341,-2.13571 0.52708,-1.945594 0.79003,-3.961601 0.78942,-5.976118 -1.6e-4,-1.089335 -0.0753,-2.178653 -0.23043,-3.257958 z m -45.218832,0.34137 c -0.03496,0.273903 -0.065,0.549743 -0.08958,0.825692 l 0.810759,0.07255 c 0.0236,-0.264751 0.05364,-0.529126 0.0875,-0.793688 z m -0.149351,1.651382 c -0.05593,1.006574 -0.04413,2.016538 0.03201,3.021132 0.133129,1.750308 0.467683,3.485355 1.000648,5.158962 l 0.77448,-0.24749 c -0.513454,-1.612362 -0.835982,-3.285292 -0.96437,-4.973346 -0.07352,-0.969686 -0.08379,-1.94408 -0.02993,-2.914453 z m 2.065299,8.692154 -0.76809,0.2731 c 0.09274,0.2609 0.190654,0.51949 0.294431,0.77662 l 0.755287,-0.3051 c -0.09941,-0.24624 -0.192522,-0.49409 -0.281628,-0.74462 z m 40.990094,1.13714 c -0.10378,0.24544 -0.2116,0.4883 -0.3243,0.72969 l 0.73822,0.3435 c 0.11695,-0.2505 0.22946,-0.50286 0.3371,-0.75742 z m -40.396961,0.34564 -0.744614,0.32857 c 0.432017,0.97686 0.934962,1.92154 1.49989,2.82698 v 0.002 c 0.898182,1.43857 1.955307,2.77627 3.149144,3.98124 l 0.5782,-0.57393 c -1.15095,-1.16168 -2.172015,-2.45309 -3.038201,-3.84042 -0.545024,-0.87354 -1.028296,-1.78366 -1.444419,-2.72457 z m 39.720621,1.10306 c -1.08572,2.12265 -2.52009,4.06526 -4.226596,5.73076 -0.201403,0.1963 -0.404991,0.38935 -0.612326,0.57606 l 0.544052,0.6038 c 0.216959,-0.19537 0.428325,-0.39518 0.635802,-0.5974 1.769798,-1.72726 3.258058,-3.74188 4.384488,-5.94412 z m -34.664072,6.02093 -0.558996,0.59313 c 0.201501,0.19052 0.405832,0.37519 0.614467,0.55686 l 0.535532,-0.61447 c -0.200737,-0.17478 -0.398077,-0.3531 -0.591003,-0.53552 z m 29.221344,0.81288 c -0.203872,0.17185 -0.409164,0.33852 -0.618728,0.50139 l 0.499254,0.64434 c 0.219034,-0.17023 0.433164,-0.34686 0.644333,-0.52486 z m -28.018015,0.23896 -0.514186,0.63154 c 0.806389,0.65633 1.657456,1.25669 2.545348,1.79647 1.473499,0.89525 3.048775,1.62266 4.687454,2.1613 l 0.256022,-0.77235 c -1.578881,-0.51899 -3.098019,-1.22122 -4.518898,-2.0845 -0.856595,-0.52075 -1.678692,-1.10001 -2.45574,-1.73246 z m 26.759214,0.74462 c -1.852458,1.34386 -3.918904,2.39603 -6.095605,3.10221 -0.358019,0.11605 -0.717196,0.22333 -1.079584,0.32003 l 0.209094,0.78729 c 0.377452,-0.10072 0.751857,-0.21277 1.122252,-0.33284 2.258652,-0.73277 4.400014,-1.82329 6.321762,-3.21742 z m -19.020757,3.30916 -0.228298,0.78089 c 0.266149,0.0778 0.533401,0.15113 0.802227,0.21762 l 0.196291,-0.79155 c -0.258109,-0.0638 -0.515377,-0.13243 -0.77022,-0.20696 z m 11.068947,0.30511 c -0.259213,0.0598 -0.521134,0.11627 -0.783023,0.16641 l 0.153622,0.79796 c 0.271273,-0.052 0.543135,-0.10848 0.812889,-0.17069 z m -9.517845,0.0811 -0.170686,0.79796 c 0.891224,0.18958 1.794704,0.32246 2.701101,0.40324 1.845238,0.16333 3.709112,0.10509 5.540869,-0.17708 l -0.123745,-0.80435 c -1.765297,0.27188 -3.564775,0.32804 -5.34459,0.17069 -0.874837,-0.078 -1.744912,-0.20793 -2.602949,-0.39046 z"
             id="path5-9-2-3" /><g
             id="g9-9-6"
             style="stroke:none;stroke-opacity:1"><g
               id="g6-1-0"
               style="stroke:none;stroke-opacity:1"><path
                 style="color:#000000;fill:#340e00;fill-opacity:1;stroke:none;stroke-width:0.0653115;stroke-opacity:1;-inkscape-stroke:none"
                 d="m 92.271976,85.429953 c -0.07654,-0.530656 -0.162495,-1.10899 -0.248641,-1.697055 -0.382464,-2.547934 -0.822272,-5.335169 -0.970529,-5.736443 -0.282015,-0.765125 -1.199839,-2.920928 -4.455358,-1.697055 -1.027873,0.387036 -1.22864,0.779166 -2.720095,0.583232 -1.128126,-0.148257 -1.850014,-1.018207 -3.418144,-1.611105 -3.255389,-1.233278 -4.675262,0.764863 -4.957277,1.529727 -0.148257,0.401535 -0.588065,4.383776 -0.970529,6.931709 -0.09078,0.578661 -0.171966,1.147263 -0.248445,1.673347 2.433246,0.492123 5.497533,0.841148 9.059037,0.841148 3.499261,-1.31e-4 6.520573,-0.334591 8.929981,-0.817505 z"
                 id="path12-2-6" /><path
                 style="color:#000000;fill:#340e00;fill-opacity:1;stroke:none;stroke-width:0.0653115;stroke-opacity:1;-inkscape-stroke:none"
                 d="m 78.349354,74.850394 c -0.600244,0.02609 -1.096877,0.185273 -1.499614,0.408069 -0.805475,0.445593 -1.234462,1.141044 -1.378431,1.531505 -0.02066,0.05596 -0.04309,0.161304 -0.07016,0.314184 -0.02707,0.152881 -0.05792,0.351536 -0.09197,0.586529 -0.06811,0.469985 -0.148858,1.085202 -0.237009,1.767366 -0.176303,1.364326 -0.381873,2.996811 -0.573007,4.270124 -0.09081,0.578861 -0.17203,1.147535 -0.24849,1.673481 l -0.0045,0.03049 0.03023,0.0061 c 2.435525,0.492583 5.501915,0.841906 9.065548,0.841906 3.501339,-1.31e-4 6.524741,-0.334804 8.936456,-0.81818 l 0.03023,-0.0061 -0.0043,-0.03061 c -0.07656,-0.530757 -0.162605,-1.10906 -0.248745,-1.69708 v -1.31e-4 c -0.191245,-1.274054 -0.396793,-2.607891 -0.573134,-3.673647 -0.08817,-0.532877 -0.168995,-0.99875 -0.237137,-1.356744 -0.06813,-0.357934 -0.122373,-0.605479 -0.161876,-0.712432 v -1.31e-4 c -0.141556,-0.384036 -0.443646,-1.121578 -1.1242,-1.609572 -0.680609,-0.488033 -1.738624,-0.721156 -3.373239,-0.106641 h -1.31e-4 c -0.516684,0.194552 -0.824505,0.389382 -1.18492,0.509736 -0.360414,0.120353 -0.776636,0.169265 -1.519386,0.07169 -0.556774,-0.07317 -1.014602,-0.32472 -1.531505,-0.634491 -0.516877,-0.309757 -1.091841,-0.677102 -1.879237,-0.974826 h -1.23e-4 c -0.817262,-0.309598 -1.521135,-0.416682 -2.121349,-0.390594 z m 0.0032,0.06455 c 0.590372,-0.0256 1.284693,0.08014 2.095072,0.387149 0.780672,0.295167 1.350801,0.659232 1.868905,0.969724 0.518104,0.310491 0.985283,0.568079 1.556634,0.643166 0.748703,0.09836 1.17867,0.04912 1.548471,-0.07437 0.369799,-0.123487 0.676154,-0.318146 1.187342,-0.510629 1.620901,-0.609358 2.649453,-0.376576 3.312138,0.0986 0.662685,0.475181 0.960638,1.198099 1.101111,1.579213 0.03462,0.09371 0.09097,0.345005 0.158942,0.702099 0.06797,0.357093 0.148761,0.822505 0.236882,1.355086 0.176243,1.065162 0.381788,2.398877 0.573007,3.672754 0.08455,0.577189 0.168576,1.143018 0.244025,1.665445 -2.402376,0.479358 -5.409801,0.811544 -8.893084,0.811674 -3.545433,0 -6.59581,-0.346527 -9.022177,-0.835146 0.07523,-0.517857 0.154855,-1.074151 0.243897,-1.641717 v -1.31e-4 c 0.191331,-1.274618 0.396854,-2.907369 0.573135,-4.271528 0.08814,-0.682079 0.169007,-1.296979 0.237009,-1.766218 0.034,-0.234619 0.06486,-0.432779 0.09172,-0.584487 0.02686,-0.151707 0.05057,-0.25866 0.06697,-0.303086 0.138048,-0.374402 0.560027,-1.060562 1.348837,-1.496936 0.394406,-0.218186 0.880796,-0.375067 1.471168,-0.400671 z"
                 id="path13-7-2" /><path
                 style="color:#000000;fill:#340e00;fill-opacity:1;stroke:none;stroke-width:0.0653115;stroke-opacity:1;-inkscape-stroke:none"
                 d="m 95.603844,88.642432 c -0.525823,-0.143424 -1.099454,-0.277313 -1.701822,-0.401536 -0.11952,-0.05258 -0.239041,-0.100253 -0.358561,-0.148257 h -0.0047 c -3.064287,0.678848 -6.678366,1.02304 -10.196764,1.02304 -3.504095,0 -7.103806,-0.344192 -10.158623,-1.013374 -0.08595,0.03344 -0.176798,0.07171 -0.267646,0.109985 -0.57853,0.11939 -1.133025,0.243612 -1.639712,0.377566 l -0.0097,0.0048 c -2.877757,0.764929 -4.641691,1.802207 -4.641691,2.949535 0,2.351999 7.481372,4.264125 16.72204,4.264125 9.231133,0 16.717475,-1.912192 16.717475,-4.264125 0,-1.123294 -1.697062,-2.136929 -4.460328,-2.901792 z"
                 id="path14-0-6" /><path
                 style="color:#000000;fill:#340e00;fill-opacity:1;stroke:none;stroke-width:0.0653115;stroke-opacity:1;-inkscape-stroke:none"
                 d="m 93.53518,88.060036 -0.0034,7.64e-4 c -3.061266,0.678179 -6.673484,1.022278 -10.189749,1.022278 -3.501952,0 -7.099745,-0.344176 -10.151607,-1.012711 l -0.0097,-0.002 -0.0092,0.0036 c -0.08565,0.03332 -0.175807,0.07132 -0.265711,0.109192 -0.577609,0.119239 -1.131617,0.243287 -1.638146,0.3772 l -0.0032,8.94e-4 -0.01033,0.0051 c -1.438956,0.382747 -2.600532,0.83334 -3.405003,1.334037 -0.805223,0.501165 -1.25712,1.055528 -1.25712,1.645927 0,0.605312 0.478926,1.173766 1.329192,1.686492 0.850266,0.512726 2.076476,0.972662 3.591114,1.359169 3.029278,0.773014 7.211818,1.251124 11.834401,1.251124 4.617816,0 8.799207,-0.478102 11.828531,-1.251124 1.514663,-0.386511 2.741172,-0.846448 3.591752,-1.359169 0.850581,-0.512721 1.329826,-1.081185 1.329826,-1.686492 0,-0.578091 -0.434859,-1.120603 -1.209025,-1.612889 -0.774165,-0.492286 -1.891722,-0.937427 -3.275272,-1.32039 h -1.3e-4 c -0.525759,-0.143407 -1.099014,-0.277285 -1.700779,-0.401436 -0.118997,-0.05225 -0.237745,-0.0997 -0.356025,-0.147207 l -0.0059,-0.0023 z m 0.0036,0.06595 c 0.117078,0.04701 0.23378,0.09359 0.350157,0.144782 l 0.0032,0.0014 0.0033,7.64e-4 c 0.601838,0.124113 1.174902,0.257858 1.699886,0.401054 l -1.31e-4,-1.31e-4 c 1.379714,0.381901 2.492364,0.82604 3.257541,1.312609 0.765177,0.48657 1.178797,1.012582 1.178797,1.557782 0,0.570659 -0.456616,1.123198 -1.298195,1.630493 -0.841579,0.507295 -2.063466,0.96637 -3.574276,1.351898 -3.02162,0.771056 -7.199025,1.249083 -11.812332,1.249083 -4.618077,0 -8.79663,-0.478036 -11.8182,-1.249083 -1.510781,-0.385521 -2.732374,-0.8446 -3.573635,-1.351895 -0.84126,-0.507297 -1.297556,-1.059806 -1.297556,-1.630493 0,-0.556928 0.430067,-1.0949 1.226249,-1.590438 0.796182,-0.495538 1.954289,-0.945586 3.391226,-1.327533 l 0.0032,-8.95e-4 0.0091,-0.0046 c 0.505146,-0.133473 1.058104,-0.257439 1.635339,-0.376561 l 0.0031,-6.53e-4 0.0029,-0.0013 c 0.08795,-0.03705 0.175369,-0.07368 0.258313,-0.106131 3.055591,0.668373 6.652941,1.012201 10.155306,1.012201 3.517898,0 7.130934,-0.343897 10.196765,-1.022406 z"
                 id="path15-9-1" /></g><g
               id="g8-3-8"
               style="stroke:none;stroke-opacity:1"><g
                 id="g7-7"
                 style="stroke:none;stroke-opacity:1"><g
                   id="path1-2-6-9"
                   class="st0"
                   style="fill:#340e00;fill-opacity:1;stroke:none;stroke-opacity:1"
                   transform="matrix(0.03330853,0,0,0.03330853,68.815927,97.034133)"><path
                     style="color:#000000;fill:#340e00;fill-opacity:1;stroke:none;stroke-opacity:1;-inkscape-stroke:none"
                     d="m 172.625,102.4 c -42.674,0 -77.392,34.739 -77.392,77.438 0,5.932 4.806,10.74 10.733,10.74 5.928,0 10.733,-4.808 10.733,-10.74 0,-30.856 25.088,-55.959 55.926,-55.959 5.928,0 10.733,-4.808 10.733,-10.74 0,-5.931 -4.805,-10.739 -10.733,-10.739 z"
                     id="path16-0-2" /><path
                     style="color:#000000;fill:#340e00;fill-opacity:1;stroke:none;stroke-opacity:1;-inkscape-stroke:none"
                     d="m 172.625,101.90039 c -42.94531,0 -77.892578,34.96751 -77.892578,77.9375 0,6.20206 5.03698,11.24023 11.234378,11.24023 6.19835,0 11.23242,-5.03823 11.23242,-11.24023 0,-30.58495 24.85915,-55.45898 55.42578,-55.45898 6.19835,0 11.23242,-5.03824 11.23242,-11.24024 0,-6.20104 -5.03407,-11.23828 -11.23242,-11.23828 z m 0,1 c 5.65764,0 10.23242,4.57734 10.23242,10.23828 0,5.66199 -4.57478,10.24024 -10.23242,10.24024 -31.10931,0 -56.42578,25.33199 -56.42578,56.45898 0,5.66199 -4.57478,10.24023 -10.23242,10.24023 -5.6566,0 -10.234378,-4.5783 -10.234378,-10.24023 0,-42.42793 34.489968,-76.9375 76.892578,-76.9375 z"
                     id="path17-6-0" /></g><g
                   id="path2-0-2-2"
                   class="st0"
                   style="fill:#340e00;fill-opacity:1;stroke:none;stroke-opacity:1"
                   transform="matrix(0.03330853,0,0,0.03330853,68.815927,97.034133)"><path
                     style="color:#000000;fill:#340e00;fill-opacity:1;stroke:none;stroke-opacity:1;-inkscape-stroke:none"
                     d="M 361.657,301.511 C 381.059,271.075 392.302,234.965 392.302,196.267 392.302,88.036 304.318,0 196.151,0 157.475,0 121.386,11.25 90.969,30.663 66.734,46.123 46.11,66.759 30.659,91.008 11.257,121.444 0,157.568 0,196.267 c 0,108.217 87.998,196.266 196.151,196.266 38.676,0 74.779,-11.264 105.197,-30.677 24.234,-15.46 44.858,-36.096 60.309,-60.345 z m -101.899,18.731 c -19.075,9.842 -40.708,15.403 -63.607,15.403 -76.797,0 -139.296,-62.535 -139.296,-139.378 0,-22.912 5.558,-44.558 15.394,-63.644 13.318,-25.856 34.483,-47.019 60.323,-60.331 19.075,-9.842 40.694,-15.403 63.578,-15.403 76.812,0 139.296,62.521 139.296,139.378 0,22.898 -5.558,44.53 -15.394,63.616 -13.303,25.856 -34.454,47.033 -60.294,60.359 z"
                     id="path18-6-3" /><path
                     style="color:#000000;fill:#340e00;fill-opacity:1;stroke:none;stroke-opacity:1;-inkscape-stroke:none"
                     d="M 196.15039,-0.5 C 157.37747,-0.5 121.19353,10.779844 90.699219,30.242187 66.402598,45.741496 45.728538,66.429624 30.238281,90.740234 10.787581,121.2532 -0.5,157.47226 -0.5,196.26758 c 0,108.48794 88.226127,196.76562 196.65039,196.76562 38.77304,0 74.97152,-11.29354 105.4668,-30.75586 24.29561,-15.4993 44.97068,-36.18743 60.46093,-60.49804 C 381.5294,271.266 392.80273,235.06238 392.80273,196.26758 392.80273,87.765711 304.58858,-0.5 196.15039,-0.5 Z m 0,1 c 107.8956,0 195.65234,87.807662 195.65234,195.76758 0,38.60112 -11.21372,74.61597 -30.5664,104.97461 h -0.002 c -15.41171,24.18734 -35.98391,44.77074 -60.15625,60.1914 C 270.73746,380.79724 234.72927,392.0332 196.15039,392.0332 88.26887,392.0332 0.5,304.21342 0.5,196.26758 0.5,157.66558 11.727371,121.63602 31.080078,91.277344 46.49179,67.090003 67.06495,46.504645 91.238281,31.083984 121.57791,11.720366 157.57139,0.5 196.15039,0.5 Z m 0,55.888672 c -22.96498,0 -44.66501,5.581597 -63.80859,15.458984 -25.93226,13.359932 -47.171498,34.598434 -60.537113,60.546874 -9.871374,19.15464 -15.449218,40.88021 -15.449218,63.87305 0,77.11403 62.726571,139.87695 139.794921,139.87695 22.97993,0 44.69227,-5.58155 63.83594,-15.45898 25.93297,-13.37395 47.15895,-34.62529 60.50976,-60.57422 9.87133,-19.15455 15.44922,-40.86487 15.44922,-63.84375 0,-77.12792 -62.71168,-139.878908 -139.79492,-139.878908 z m 0,1 c 76.54061,0 138.79492,62.292978 138.79492,138.878908 0,22.81707 -5.53724,44.36931 -15.33789,63.38672 -13.25516,25.76301 -34.33115,46.86455 -60.07812,60.14257 -19.00629,9.80655 -40.56088,15.34766 -63.37891,15.34766 -76.52549,0 -138.794921,-62.30514 -138.794921,-138.87695 0,-22.83112 5.537284,-44.3987 15.33789,-63.41602 13.270099,-25.763 34.360421,-46.851143 60.107421,-60.115232 19.00638,-9.806593 40.54664,-15.347656 63.34961,-15.347656 z"
                     id="path19-1-7" /></g><g
                   id="path3-8-5"
                   class="st0"
                   style="fill:#340e00;fill-opacity:1;stroke:none;stroke-opacity:1"
                   transform="matrix(0.03330853,0,0,0.03330853,68.815927,97.034133)"><path
                     style="color:#000000;fill:#340e00;fill-opacity:1;stroke:none;stroke-opacity:1;-inkscape-stroke:none"
                     d="M 499.516,439.154 386.275,326.13 c -16.119,23.552 -36.771,44.202 -60.309,60.345 l 113.241,113.024 c 8.329,8.334 19.246,12.501 30.148,12.501 10.916,0 21.833,-4.167 30.162,-12.501 16.644,-16.669 16.644,-43.677 -10e-4,-60.345 z"
                     id="path20-7-9" /><path
                     style="color:#000000;fill:#340e00;fill-opacity:1;stroke:none;stroke-opacity:1;-inkscape-stroke:none"
                     d="m 386.20312,325.35156 -0.33984,0.4961 c -16.08349,23.50012 -36.69323,44.10719 -60.17969,60.21484 l -0.49804,0.3418 113.66797,113.44726 c 8.4245,8.42957 19.47255,12.64844 30.50195,12.64844 11.04323,0 22.09112,-4.21887 30.51562,-12.64844 16.83479,-16.86007 16.83386,-44.1917 -0.002,-61.05078 z m 0.13477,1.54688 112.82422,112.60937 c 16.45415,16.47689 16.45513,43.16078 0.002,59.63867 -8.23347,8.23842 -19.01985,12.35352 -29.80859,12.35352 -10.77458,0 -21.56145,-4.1151 -29.79492,-12.35352 v -0.002 L 326.72461,386.52539 c 23.22087,-16.01473 43.62159,-36.39225 59.61328,-59.62695 z"
                     id="path21-9-2" /></g></g><g
                 id="g2-3-2"
                 style="fill:#340e00;fill-opacity:1;stroke:none;stroke-width:26.2648;stroke-dasharray:none;stroke-opacity:1"
                 transform="matrix(0,0.02633303,-0.03692473,0,100.55395,97.489656)">
	<g
   id="g2-2-8"
   style="fill:#340e00;fill-opacity:1;stroke:#340e00;stroke-width:26.2648;stroke-dasharray:none;stroke-opacity:1">
		<path
   d="m 458.624,191.979 c -16.021,0 -25.387,6.101 -34.368,11.947 -3.499,2.261 -7.701,2.325 -11.264,0.192 -3.563,-2.133 -5.504,-5.909 -5.163,-10.048 l 8.107,-97.216 c 0.256,-2.965 -0.768,-5.909 -2.773,-8.107 -2.027,-2.197 -4.864,-3.456 -7.851,-3.456 h -95.701 c -7.829,0 -14.997,4.267 -18.752,11.136 -3.712,6.848 -3.435,15.147 0.768,21.653 4.267,6.613 7.04,11.605 7.04,20.544 0,17.643 -19.136,32 -42.667,32 -23.531,0 -42.667,-14.357 -42.667,-32 0,-8.939 2.773,-13.931 7.019,-20.523 4.224,-6.549 4.501,-14.848 0.789,-21.675 C 217.386,89.557 210.218,85.29 202.389,85.29 h -95.723 c -2.965,0 -5.824,1.259 -7.851,3.456 -2.005,2.197 -3.029,5.141 -2.773,8.107 l 8.107,97.216 c 0.341,4.16 -1.6,7.915 -5.163,10.048 -3.584,2.133 -7.808,2.048 -12.011,-0.683 -8.256,-5.355 -17.621,-11.456 -33.643,-11.456 -29.397,0 -53.333,28.715 -53.333,64 0,35.285 23.936,64 53.333,64 16.021,0 25.387,-6.101 34.368,-11.947 3.499,-2.261 7.701,-2.325 11.264,-0.192 3.563,2.133 5.504,5.909 5.163,10.048 l -8.107,97.216 c -0.256,2.965 0.768,5.909 2.773,8.107 2.027,2.197 4.864,3.456 7.851,3.456 h 95.723 c 7.829,0 14.997,-4.267 18.752,-11.136 3.712,-6.848 3.435,-15.147 -0.768,-21.653 -4.267,-6.613 -7.04,-11.605 -7.04,-20.544 0,-17.643 19.136,-32 42.667,-32 23.531,0 42.667,14.357 42.667,32 0,8.939 -2.773,13.931 -7.019,20.523 -4.224,6.549 -4.501,14.848 -0.789,21.675 3.755,6.869 10.923,11.136 18.752,11.136 h 95.723 c 2.987,0 5.824,-1.259 7.829,-3.456 2.005,-2.197 3.029,-5.141 2.773,-8.107 l -8.107,-97.216 c -0.341,-4.16 1.6,-7.915 5.163,-10.048 3.563,-2.155 7.787,-2.048 12.011,0.683 8.256,5.355 17.621,11.456 33.643,11.456 29.397,0 53.333,-28.715 53.333,-64 0,-35.285 -23.936,-64 -53.333,-64 z m 0,106.688 c -9.685,0 -14.848,-3.349 -22.763,-8.512 -10.325,-6.72 -23.275,-6.933 -33.813,-0.619 -10.56,6.315 -16.491,17.856 -15.467,30.123 l 7.125,85.675 -84.139,0.064 c 5.269,-8.192 10.411,-17.408 10.411,-32.064 0,-29.397 -28.715,-53.333 -64,-53.333 -35.285,0 -64,23.936 -64,53.333 0,14.656 5.141,23.872 10.389,32 H 118.25 l 7.125,-85.675 c 1.024,-12.267 -4.907,-23.808 -15.467,-30.123 -10.56,-6.336 -23.531,-6.08 -34.603,1.131 -7.147,4.651 -12.288,8 -21.995,8 -17.643,0 -32,-19.136 -32,-42.667 0,-23.531 14.357,-42.667 32,-42.667 9.685,0 14.848,3.349 22.763,8.512 10.304,6.699 23.275,6.912 33.813,0.619 10.56,-6.315 16.491,-17.856 15.467,-30.123 l -7.125,-85.675 84.139,-0.064 c -5.269,8.192 -10.411,17.408 -10.411,32.064 0,29.397 28.715,53.333 64,53.333 35.285,0 64,-23.936 64,-53.333 0,-14.656 -5.141,-23.872 -10.389,-32 h 84.117 l -7.125,85.675 c -1.024,12.267 4.907,23.808 15.467,30.123 10.539,6.293 23.488,6.059 34.603,-1.131 7.147,-4.651 12.288,-8 21.995,-8 17.643,0 32,19.136 32,42.667 0,23.531 -14.357,42.667 -32,42.667 z"
   id="path1-6-9"
   style="fill:#340e00;fill-opacity:1;stroke:#340e00;stroke-width:26.2648;stroke-dasharray:none;stroke-opacity:1" />
	</g>
</g></g></g></g></g></g></g><style
     type="text/css"
     id="style1">
	.st0{fill:#000000;}
</style><style
     type="text/css"
     id="style1-3">
	.st0{fill:#000000;}
</style><style
     type="text/css"
     id="style1-7">
	.st0{fill:#000000;}
</style><style
     type="text/css"
     id="style1-3-3">
	.st0{fill:#000000;}
</style><style
     type="text/css"
     id="style1-1">
	.st0{fill:#000000;}
</style><style
     type="text/css"
     id="style1-3-2">
	.st0{fill:#000000;}
</style></svg>
