<?xml version="1.0" encoding="UTF-8" standalone="no"?>
<!-- Created with Inkscape (http://www.inkscape.org/) -->

<svg
   width="128.58749mm"
   height="100.54166mm"
   viewBox="0 0 128.5875 100.54166"
   version="1.1"
   id="svg1"
   xml:space="preserve"
   xmlns="http://www.w3.org/2000/svg"
   xmlns:svg="http://www.w3.org/2000/svg"><defs
     id="defs1"><clipPath
   clipPathUnits="userSpaceOnUse"
   id="clipPath10"><rect
     style="fill:none;fill-opacity:0.714966;stroke:#000000;stroke-width:1.92523;stroke-dasharray:none;stroke-dashoffset:0;stroke-opacity:0.973875"
     id="rect11"
     width="1440.781"
     height="1144.0551"
     x="271.90363"
     y="-66.884705"
     ry="0" /></clipPath>
	
	
	
	
	
	
	
	
	
	
</defs><g
     id="layer1"
     transform="translate(255.72073,229.68845)"><rect
       style="fill:#15501b;stroke-width:0.0689542;fill-opacity:1"
       id="rect18"
       width="128.58749"
       height="100.54166"
       x="-255.72073"
       y="-229.68845" /><g
       style="fill:#fffbb1;fill-opacity:1;stroke:#fffbb1;stroke-width:5.28588;stroke-dasharray:none;stroke-opacity:1;opacity:0.08"
       id="g2"
       transform="matrix(0.02991011,0,0,0.02991011,-207.97273,-172.26558)"><g
         id="g5"
         style="fill:#fffbb1;fill-opacity:1;stroke:#fffbb1;stroke-width:5.28588;stroke-dasharray:none;stroke-opacity:1">
	<g
   id="g4"
   style="fill:#fffbb1;fill-opacity:1;stroke:#fffbb1;stroke-width:5.28588;stroke-dasharray:none;stroke-opacity:1">
		<g
   id="g3"
   style="fill:#fffbb1;fill-opacity:1;stroke:#fffbb1;stroke-width:5.28588;stroke-dasharray:none;stroke-opacity:1">
			<path
   d="m 480,192 v -16 h -16 v 16 H 431.624 C 427.816,101.944 360.56,28.792 271.04,17.656 268.24,7.512 259.024,0 248,0 236.976,0 227.76,7.512 224.96,17.656 135.44,28.792 68.184,101.944 64.376,192 H 32 v -8 H 16 v 8 H 0 v 16 H 16.2 C 19.464,303.568 80.768,384.632 165.928,416.96 139.848,421.72 120,444.568 120,472 v 8 h -16 v 16 h 288 v -16 h -16 v -8 C 376,444.568 356.152,421.72 330.072,416.96 415.232,384.632 476.536,303.568 479.8,208 H 496 v -16 z m -64,8 c 0,92.632 -75.368,168 -168,168 -43.44,0 -82.96,-16.72 -112.808,-43.872 l 24.984,-24.984 c 7.072,8.2 15.48,14.92 25.192,19.84 11.84,6.008 24.888,8.984 38.472,8.976 16.28,0 33.296,-4.32 49.88,-12.792 3.992,2.992 8.904,4.832 14.28,4.832 13.232,0 24,-10.768 24,-24 0,-1.816 -0.24,-3.576 -0.624,-5.28 1.32,-2.312 2.544,-4.72 3.56,-7.312 10.056,-10.832 18.728,-22.976 25.76,-36.296 19.616,-37.184 24.6,-78.192 13.68,-112.504 -2.368,-7.432 -5.48,-14.248 -9.152,-20.52 L 372.528,86.784 C 399.68,116.648 416,156.376 416,200 Z M 186.232,135.216 C 188.088,135.68 190,136 192,136 c 12.6,0 22.848,-9.792 23.816,-22.152 18.888,5.664 40.208,24.184 57.344,49.68 l -9,9 C 259.392,169.72 253.92,168 248,168 c -17.648,0 -32,14.352 -32,32 0,5.92 1.72,11.392 4.536,16.152 l -19.376,19.376 c -1.536,-2.576 -3.032,-5.2 -4.472,-7.888 -14.592,-27.272 -21.736,-56.304 -20.432,-78.568 3.08,-4.832 6.416,-9.432 9.976,-13.856 z M 184,112 c 0,-4.416 3.584,-8 8,-8 4.416,0 8,3.584 8,8 0,4.416 -3.584,8 -8,8 -4.416,0 -8,-3.584 -8,-8 z m 104,160 c -12.6,0 -22.848,9.792 -23.816,22.152 -17.704,-5.312 -37.552,-21.888 -54.08,-44.944 l 21.736,-21.736 c 4.768,2.808 10.24,4.528 16.16,4.528 17.648,0 32,-14.352 32,-32 0,-5.92 -1.72,-11.392 -4.536,-16.152 l 6.28,-6.28 c 0.52,0.936 1.064,1.84 1.568,2.792 18.408,34.408 24.96,71.576 17.648,94.44 -0.224,0.232 -0.456,0.456 -0.68,0.688 C 296.672,273.32 292.504,272 288,272 Z m 8,24 c 0,4.416 -3.584,8 -8,8 -4.416,0 -8,-3.584 -8,-8 0,-4.416 3.584,-8 8,-8 4.416,0 8,3.584 8,8 z m -43.456,10.808 c -21.264,7.352 -42.384,6.816 -59.944,-2.088 -8.144,-4.128 -15.208,-9.848 -21.088,-16.912 l 27.16,-27.16 c 16.224,21.992 35.336,38.336 53.872,46.16 z M 232,200 c 0,-8.824 7.176,-16 16,-16 8.824,0 16,7.176 16,16 0,8.824 -7.176,16 -16,16 -8.824,0 -16,-7.176 -16,-16 z m 65.432,-27.192 c -1.272,-2.376 -2.6,-4.688 -3.936,-6.984 l 40.008,-40.008 c 2.184,4.256 4.088,8.792 5.632,13.648 9.624,30.248 5.04,66.768 -12.592,100.176 -2.048,3.888 -4.248,7.664 -6.592,11.328 -0.464,-23.56 -8.104,-51.2 -22.52,-78.16 z m -12.768,-20.784 c -17.192,-24.752 -38.08,-43.08 -58.216,-51.248 26.536,-14.704 54.368,-16.936 76.96,-5.496 8.144,4.128 15.208,9.848 21.088,16.912 z m -102.088,83.16 c 2.208,4.12 4.552,8.08 6.96,11.96 l -27.032,27.032 c -2.192,-4.248 -4.096,-8.792 -5.64,-13.648 -8.056,-25.312 -6.024,-54.992 5.144,-83.592 3.16,18.552 10.048,38.584 20.568,58.248 z M 248,16 c 4.416,0 8,3.584 8,8 0,4.416 -3.584,8 -8,8 -4.416,0 -8,-3.584 -8,-8 0,-4.416 3.584,-8 8,-8 z M 226.056,33.64 C 229.784,42.08 238.2,48 248,48 c 9.8,0 18.216,-5.92 21.944,-14.36 35.208,4.568 66.688,19.512 91.272,41.824 l -25.384,25.384 C 328.76,92.648 320.352,85.928 310.64,81.008 279.84,65.376 241.696,70.232 207.384,93.728 203.208,90.208 197.88,88 192,88 c -13.232,0 -24,10.768 -24,24 0,1.816 0.24,3.568 0.624,5.272 -4.248,7.416 -6.936,16.32 -8.04,26.352 -1.848,3.032 -3.616,6.12 -5.28,9.272 -19.616,37.176 -24.6,78.184 -13.688,112.496 2.368,7.44 5.488,14.248 9.16,20.528 L 123.88,312.816 C 96.72,282.96 80,243.44 80,200 80,114.744 142.352,44.496 226.056,33.64 Z M 360,472 v 8 H 136 v -8 c 0,-22.056 17.944,-40 40,-40 h 144 c 22.056,0 40,17.944 40,40 z M 248,416 C 131.584,416 36.432,323.408 32.2,208 h 32 c 4.208,97.76 85.024,176 183.8,176 98.776,0 179.592,-78.24 183.8,-176 h 32 C 459.568,323.408 364.416,416 248,416 Z"
   id="path1-5"
   style="fill:#fffbb1;fill-opacity:1;stroke:#fffbb1;stroke-width:5.28588;stroke-dasharray:none;stroke-opacity:1" />
			<path
   id="rect1"
   d="m 240,448 h 16 v 16 h -16 z"
   style="fill:#fffbb1;fill-opacity:1;stroke:#fffbb1;stroke-width:5.28588;stroke-dasharray:none;stroke-opacity:1" />
			<path
   id="rect2"
   d="m 272,448 h 16 v 16 h -16 z"
   style="fill:#fffbb1;fill-opacity:1;stroke:#fffbb1;stroke-width:5.28588;stroke-dasharray:none;stroke-opacity:1" />
			<path
   id="rect3"
   d="m 208,448 h 16 v 16 h -16 z"
   style="fill:#fffbb1;fill-opacity:1;stroke:#fffbb1;stroke-width:5.28588;stroke-dasharray:none;stroke-opacity:1" />
		</g>
	</g>
</g></g><g
       id="g3-3"
       transform="matrix(0.02120124,0,0,0.02120124,-228.64257,-190.53208)"
       style="fill:#fffbb1;fill-opacity:1;stroke:#fffbb1;stroke-opacity:1;opacity:0.08">
	<path
   class="st0"
   d="m 172.625,102.4 c -42.674,0 -77.392,34.739 -77.392,77.438 0,5.932 4.806,10.74 10.733,10.74 5.928,0 10.733,-4.808 10.733,-10.74 0,-30.856 25.088,-55.959 55.926,-55.959 5.928,0 10.733,-4.808 10.733,-10.74 0,-5.931 -4.805,-10.739 -10.733,-10.739 z"
   id="path1-56"
   style="fill:#fffbb1;fill-opacity:1;stroke:#fffbb1;stroke-opacity:1" />
	<path
   class="st0"
   d="M 361.657,301.511 C 381.059,271.075 392.302,234.965 392.302,196.267 392.302,88.036 304.318,0 196.151,0 157.475,0 121.386,11.25 90.969,30.663 66.734,46.123 46.11,66.759 30.659,91.008 11.257,121.444 0,157.568 0,196.267 c 0,108.217 87.998,196.266 196.151,196.266 38.676,0 74.779,-11.264 105.197,-30.677 24.234,-15.46 44.858,-36.096 60.309,-60.345 z m -101.899,18.731 c -19.075,9.842 -40.708,15.403 -63.607,15.403 -76.797,0 -139.296,-62.535 -139.296,-139.378 0,-22.912 5.558,-44.558 15.394,-63.644 13.318,-25.856 34.483,-47.019 60.323,-60.331 19.075,-9.842 40.694,-15.403 63.578,-15.403 76.812,0 139.296,62.521 139.296,139.378 0,22.898 -5.558,44.53 -15.394,63.616 -13.303,25.856 -34.454,47.033 -60.294,60.359 z"
   id="path2"
   style="fill:#fffbb1;fill-opacity:1;stroke:#fffbb1;stroke-opacity:1" />
	<path
   class="st0"
   d="M 499.516,439.154 386.275,326.13 c -16.119,23.552 -36.771,44.202 -60.309,60.345 l 113.241,113.024 c 8.329,8.334 19.246,12.501 30.148,12.501 10.916,0 21.833,-4.167 30.162,-12.501 16.644,-16.669 16.644,-43.677 -10e-4,-60.345 z"
   id="path3"
   style="fill:#fffbb1;fill-opacity:1;stroke:#fffbb1;stroke-opacity:1" />
</g><g
       id="g2-9"
       transform="matrix(0.02944186,0,0,0.02944186,-215.89543,-216.89024)"
       style="fill:#fffbb1;fill-opacity:1;stroke:#fffbb1;stroke-opacity:1;opacity:0.08">
	<path
   class="st0"
   d="m 392.692,257.322 c -1.172,-8.125 -2.488,-16.98 -3.807,-25.984 -5.856,-39.012 -12.59,-81.688 -14.86,-87.832 -4.318,-11.715 -18.371,-44.723 -68.217,-25.984 -15.738,5.926 -18.812,11.93 -41.648,8.93 -17.273,-2.27 -28.326,-15.59 -52.336,-24.668 -49.844,-18.883 -71.584,11.711 -75.902,23.422 -2.27,6.148 -9.004,67.121 -14.86,106.133 -1.39,8.86 -2.633,17.566 -3.804,25.621 37.256,7.535 84.174,12.879 138.705,12.879 53.578,-0.002 99.838,-5.123 136.729,-12.517 z"
   id="path1-1"
   style="fill:#fffbb1;fill-opacity:1;stroke:#fffbb1;stroke-opacity:1" />
	<path
   class="st0"
   d="m 443.707,306.509 c -8.051,-2.196 -16.834,-4.246 -26.057,-6.148 -1.83,-0.805 -3.66,-1.535 -5.49,-2.27 h -0.072 c -46.918,10.394 -102.254,15.664 -156.125,15.664 -53.652,0 -108.768,-5.27 -155.541,-15.516 -1.316,0.512 -2.707,1.098 -4.098,1.684 -8.858,1.828 -17.348,3.73 -25.106,5.781 l -0.148,0.074 C 27.008,317.49 0,333.372 0,350.939 c 0,36.012 114.549,65.289 256.035,65.289 141.34,0 255.965,-29.278 255.965,-65.289 0,-17.199 -25.984,-32.719 -68.293,-44.43 z"
   id="path2-2"
   style="fill:#fffbb1;fill-opacity:1;stroke:#fffbb1;stroke-opacity:1" />
</g><g
       style="fill:#fffbb1;fill-opacity:1;stroke:#fffbb1;stroke-opacity:1;opacity:0.08"
       id="g17"
       transform="matrix(0.02967369,0,0,0.02967369,-184.90856,-197.88893)"><g
         id="g2-7"
         style="fill:#fffbb1;fill-opacity:1;stroke:#fffbb1;stroke-opacity:1">
	<g
   id="g1-0"
   style="fill:#fffbb1;fill-opacity:1;stroke:#fffbb1;stroke-opacity:1">
		<path
   d="m 429.25,0 h -281.6 c -22.5,0 -40.8,18.3 -40.8,40.8 v 28 h -28 c -22.5,0 -40.8,18.3 -40.8,40.8 v 279.3 c 0,10.9 4.2,21.1 11.9,28.8 l 78.4,78.4 c 7.7,7.7 17.9,11.9 28.8,11.9 h 203.2 c 22.5,0 40.8,-18.3 40.8,-40.8 v -28 h 28 c 22.5,0 40.8,-18.3 40.8,-40.8 V 40.8 C 469.95,18.3 451.65,0 429.25,0 Z m -297,459.9 -45.9,-45.9 h 45.9 z m 240.7,7.3 c 0,6.9 -5.6,12.5 -12.5,12.5 h -200.1 v -79.9 c 0,-7.8 -6.3,-14.1 -14.1,-14.1 H 66.35 V 109.5 c 0,-6.9 5.6,-12.5 12.5,-12.5 h 281.6 c 6.9,0 12.5,5.6 12.5,12.5 z m 56.3,-56.2 h -28 V 109.5 c 0,-22.5 -18.3,-40.8 -40.8,-40.8 h -225.3 v -28 c 0,-6.9 5.6,-12.5 12.5,-12.5 h 281.5 c 6.9,0 12.5,5.6 12.5,12.5 v 357.8 h 0.1 c 0,6.9 -5.6,12.5 -12.5,12.5 z"
   id="path1-9"
   style="fill:#fffbb1;fill-opacity:1;stroke:#fffbb1;stroke-opacity:1" />
	</g>
</g><g
         id="g4-3"
         style="fill:#fffbb1;fill-opacity:1;stroke:#fffbb1;stroke-opacity:1">
	<g
   id="g3-6"
   style="fill:#fffbb1;fill-opacity:1;stroke:#fffbb1;stroke-opacity:1">
		<path
   d="m 333.85,129.8 h -121.7 c -7.8,0 -14.1,6.3 -14.1,14.1 0,7.8 6.3,14.1 14.1,14.1 h 121.6 c 7.8,0 14.1,-6.3 14.1,-14.1 0.1,-7.8 -6.3,-14.1 -14,-14.1 z"
   id="path2-0"
   style="fill:#fffbb1;fill-opacity:1;stroke:#fffbb1;stroke-opacity:1" />
	</g>
</g><g
         id="g6"
         style="fill:#fffbb1;fill-opacity:1;stroke:#fffbb1;stroke-opacity:1">
	<g
   id="g5-6"
   style="fill:#fffbb1;fill-opacity:1;stroke:#fffbb1;stroke-opacity:1">
		<path
   d="m 333.85,202 h -121.7 c -7.8,0 -14.1,6.3 -14.1,14.1 0,7.8 6.3,14.1 14.1,14.1 h 121.6 c 7.8,0 14.1,-6.3 14.1,-14.1 0,-7.8 -6.3,-14.1 -14,-14.1 z"
   id="path4"
   style="fill:#fffbb1;fill-opacity:1;stroke:#fffbb1;stroke-opacity:1" />
	</g>
</g><g
         id="g8"
         style="fill:#fffbb1;fill-opacity:1;stroke:#fffbb1;stroke-opacity:1">
	<g
   id="g7"
   style="fill:#fffbb1;fill-opacity:1;stroke:#fffbb1;stroke-opacity:1">
		<path
   d="m 333.85,274.3 h -121.7 c -7.8,0 -14.1,6.3 -14.1,14.1 0,7.8 6.3,14.1 14.1,14.1 h 121.6 c 7.8,0 14.1,-6.3 14.1,-14.1 0.1,-7.8 -6.3,-14.1 -14,-14.1 z"
   id="path6"
   style="fill:#fffbb1;fill-opacity:1;stroke:#fffbb1;stroke-opacity:1" />
	</g>
</g><g
         id="g10"
         style="fill:#fffbb1;fill-opacity:1;stroke:#fffbb1;stroke-opacity:1">
	<g
   id="g9"
   style="fill:#fffbb1;fill-opacity:1;stroke:#fffbb1;stroke-opacity:1">
		<path
   d="m 333.85,346.5 h -121.7 c -7.8,0 -14.1,6.3 -14.1,14.1 0,7.8 6.3,14.1 14.1,14.1 h 121.6 c 7.8,0 14.1,-6.3 14.1,-14.1 0.1,-7.8 -6.3,-14.1 -14,-14.1 z"
   id="path8"
   style="fill:#fffbb1;fill-opacity:1;stroke:#fffbb1;stroke-opacity:1" />
	</g>
</g><g
         id="g12"
         style="fill:#fffbb1;fill-opacity:1;stroke:#fffbb1;stroke-opacity:1">
	<g
   id="g11"
   style="fill:#fffbb1;fill-opacity:1;stroke:#fffbb1;stroke-opacity:1">
		<path
   d="m 333.85,418.7 h -121.7 c -7.8,0 -14.1,6.3 -14.1,14.1 0,7.8 6.3,14.1 14.1,14.1 h 121.6 c 7.8,0 14.1,-6.3 14.1,-14.1 0.1,-7.7 -6.3,-14.1 -14,-14.1 z"
   id="path10"
   style="fill:#fffbb1;fill-opacity:1;stroke:#fffbb1;stroke-opacity:1" />
	</g>
</g><g
         id="g14"
         style="fill:#fffbb1;fill-opacity:1;stroke:#fffbb1;stroke-opacity:1">
	<g
   id="g13"
   style="fill:#fffbb1;fill-opacity:1;stroke:#fffbb1;stroke-opacity:1">
		<path
   d="m 161.95,122.1 h -56.4 c -7.8,0 -14.1,6.3 -14.1,14.1 v 56.5 c 0,7.8 6.3,14.1 14.1,14.1 h 56.4 c 7.8,0 14.1,-6.3 14.1,-14.1 v -56.5 c 0,-7.8 -6.3,-14.1 -14.1,-14.1 z m -14.1,56.4 h -28.2 v -28.2 h 28.2 z"
   id="path12"
   style="fill:#fffbb1;fill-opacity:1;stroke:#fffbb1;stroke-opacity:1" />
	</g>
</g><g
         id="g16"
         style="fill:#fffbb1;fill-opacity:1;stroke:#fffbb1;stroke-opacity:1">
	<g
   id="g15"
   style="fill:#fffbb1;fill-opacity:1;stroke:#fffbb1;stroke-opacity:1">
		<path
   d="m 161.95,228.7 h -56.4 c -7.8,0 -14.1,6.3 -14.1,14.1 v 56.4 c 0,7.8 6.3,14.1 14.1,14.1 h 56.4 c 7.8,0 14.1,-6.3 14.1,-14.1 v -56.4 c 0,-7.8 -6.3,-14.1 -14.1,-14.1 z m -14.1,56.4 h -28.2 v -28.2 h 28.2 z"
   id="path14"
   style="fill:#fffbb1;fill-opacity:1;stroke:#fffbb1;stroke-opacity:1" />
	</g>
</g></g><g
       style="fill:#fffbb1;fill-opacity:1;stroke:#fffbb1;stroke-opacity:1;opacity:0.08"
       id="g19"
       transform="matrix(0.26877991,0,0,0.26877991,-166.64138,-172.38877)"><path
         d="m 25.478516,1.9277344 a 1.50015,1.50015 0 0 0 -1.476563,1.5195312 c 0,2 -0.6875,2.3300782 -1.9375,3.3300782 -1.25,1 -3.0625,2.6699214 -3.0625,5.6699222 a 1.50015,1.50015 0 1 0 3,0 c 0,-2 0.685547,-2.328125 1.935547,-3.3281254 1.25,-1 3.064453,-2.671875 3.064453,-5.671875 A 1.50015,1.50015 0 0 0 25.478516,1.9277344 Z m 6,2 a 1.50015,1.50015 0 0 0 -1.476563,1.5195312 c 0,0.75 -0.147037,1.0637712 -0.351562,1.3535156 -0.204526,0.2897446 -0.548828,0.5722657 -1.048829,0.9472657 -0.5,0.375 -1.155697,0.8424789 -1.701171,1.6152343 -0.545475,0.7727558 -0.898438,1.8339848 -0.898438,3.0839848 a 1.50015,1.50015 0 1 0 3,0 c 0,-0.75 0.145084,-1.063772 0.349609,-1.353516 0.204527,-0.289744 0.548829,-0.570312 1.048829,-0.945312 0.5,-0.375001 1.155698,-0.8444325 1.701171,-1.617188 0.545476,-0.7727555 0.900391,-1.8339844 0.900391,-3.0839844 A 1.50015,1.50015 0 0 0 31.478516,3.9277344 Z M 14.615234,15.947266 c -0.972,0 -1.906406,0.409093 -2.566406,1.121093 -0.66,0.713 -0.995875,1.677485 -0.921875,2.646485 l 1.40625,18.30664 c 0.299,3.883 3.584516,6.925782 7.478516,6.925782 h 7.888672 c 3.895,0 7.180515,-3.042782 7.478515,-6.925782 l 0.0059,-0.07422 h 2.117187 c 4.124501,0 7.5,-3.375499 7.5,-7.5 v -5 c 0,-1.914955 -1.585045,-3.5 -3.5,-3.5 h -4.888672 l 0.171875,-2.230469 c 0.074,-0.968 -0.260922,-1.932484 -0.919922,-2.646485 -0.661,-0.713 -1.596359,-1.123046 -2.568359,-1.123046 z m 21.767578,9 h 5.119141 c 0.295045,0 0.5,0.204954 0.5,0.5 v 5 c 0,2.503499 -1.996501,4.5 -4.5,4.5 h -1.886719 z"
         id="path1-4"
         style="fill:#fffbb1;fill-opacity:1;stroke:#fffbb1;stroke-opacity:1" /></g><g
       style="fill:#fffbb1;fill-opacity:1;stroke:#fffbb1;stroke-opacity:1;opacity:0.08"
       id="g20"
       transform="matrix(0.02844728,0,0,0.02844728,-145.04819,-195.53944)"><g
         id="g2-78"
         style="fill:#fffbb1;fill-opacity:1;stroke:#fffbb1;stroke-opacity:1">
	<g
   id="g1-4"
   style="fill:#fffbb1;fill-opacity:1;stroke:#fffbb1;stroke-opacity:1">
		<path
   d="M 471.04,450.56 H 450.56 V 20.48 C 450.56,9.169 441.391,0 430.08,0 418.769,0 409.6,9.169 409.6,20.48 v 20.48 h -20.48 c 0,-11.284 -13.783,-20.48 -30.72,-20.48 -16.937,0 -30.72,9.195 -30.72,20.48 0,-11.284 -13.783,-20.48 -30.72,-20.48 -16.937,0 -30.72,9.195 -30.72,20.48 0,-11.284 -13.783,-20.48 -30.72,-20.48 -16.937,0 -30.72,9.195 -30.72,20.48 h -40.96 c 0,-11.284 -13.783,-20.48 -30.72,-20.48 -16.937,0 -30.72,9.195 -30.72,20.48 H 81.92 V 20.48 C 81.92,9.169 72.751,0 61.44,0 50.129,0 40.96,9.169 40.96,20.48 V 450.56 H 20.48 C 9.169,450.56 0,459.729 0,471.04 c 0,11.311 9.169,20.48 20.48,20.48 h 81.92 c 11.311,0 20.48,-9.169 20.48,-20.48 0,-11.311 -9.169,-20.48 -20.48,-20.48 H 81.92 v -81.92 h 20.48 c 0,11.284 13.783,20.48 30.72,20.48 16.937,0 30.72,-9.195 30.72,-20.48 0,11.284 13.783,20.48 30.72,20.48 16.937,0 30.72,-9.195 30.72,-20.48 h 40.96 c 0,11.284 13.783,20.48 30.72,20.48 16.937,0 30.72,-9.195 30.72,-20.48 0,11.284 13.783,20.48 30.72,20.48 16.937,0 30.72,-9.195 30.72,-20.48 h 20.48 v 81.92 h -20.48 c -11.311,0 -20.48,9.169 -20.48,20.48 0,11.311 9.169,20.48 20.48,20.48 h 81.92 c 11.311,0 20.48,-9.169 20.48,-20.48 0,-11.311 -9.169,-20.48 -20.48,-20.48 z M 102.4,81.92 c 0,11.284 13.783,20.48 30.72,20.48 16.937,0 30.72,-9.195 30.72,-20.48 h 40.96 c 0,11.284 13.783,20.48 30.72,20.48 16.937,0 30.72,-9.195 30.72,-20.48 0,11.284 13.783,20.48 30.72,20.48 16.937,0 30.72,-9.195 30.72,-20.48 0,11.284 13.783,20.48 30.72,20.48 16.937,0 30.72,-9.195 30.72,-20.48 h 20.48 v 102.4 h -61.44 c 0,-11.284 -13.783,-20.48 -30.72,-20.48 -16.937,0 -30.72,9.195 -30.72,20.48 0,-11.284 -13.783,-20.48 -30.72,-20.48 -16.937,0 -30.72,9.195 -30.72,20.48 0,-11.284 -13.783,-20.48 -30.72,-20.48 -16.937,0 -30.72,9.195 -30.72,20.48 0,-11.284 -13.783,-20.48 -30.72,-20.48 -16.937,0 -30.72,9.195 -30.72,20.48 H 81.92 V 81.92 Z m 286.72,245.76 c 0,-11.285 -13.783,-20.48 -30.72,-20.48 -16.937,0 -30.72,9.195 -30.72,20.48 0,-11.285 -13.783,-20.48 -30.72,-20.48 -16.937,0 -30.72,9.195 -30.72,20.48 h -40.96 c 0,-11.285 -13.783,-20.48 -30.72,-20.48 -16.937,0 -30.72,9.195 -30.72,20.48 0,-11.285 -13.783,-20.48 -30.72,-20.48 -16.937,0 -30.72,9.195 -30.72,20.48 H 81.92 v -102.4 h 20.48 c 0,11.284 13.783,20.48 30.72,20.48 16.937,0 30.72,-9.195 30.72,-20.48 0,11.284 13.783,20.48 30.72,20.48 16.937,0 30.72,-9.195 30.72,-20.48 0,11.284 13.783,20.48 30.72,20.48 16.937,0 30.72,-9.195 30.72,-20.48 0,11.284 13.783,20.48 30.72,20.48 16.937,0 30.72,-9.195 30.72,-20.48 h 61.44 v 102.4 z"
   id="path1-50"
   style="fill:#fffbb1;fill-opacity:1;stroke:#fffbb1;stroke-opacity:1" />
	</g>
</g></g><g
       style="fill:#fffbb1;fill-opacity:1;stroke:#fffbb1;stroke-opacity:1;opacity:0.08"
       id="g21"
       transform="matrix(0.03889775,0,0,0.03889775,-168.30866,-228.02678)"><g
         id="g8-3"
         style="fill:#fffbb1;fill-opacity:1;stroke:#fffbb1;stroke-opacity:1">
	<path
   d="M 407.5,88 H 55.5 C 51.357,88 48,91.358 48,95.5 v 272 c 0,4.142 3.357,7.5 7.5,7.5 h 352 c 4.143,0 7.5,-3.358 7.5,-7.5 V 95.5 C 415,91.358 411.643,88 407.5,88 Z M 400,360 H 63 V 103 h 337 z"
   id="path1-6"
   style="fill:#fffbb1;fill-opacity:1;stroke:#fffbb1;stroke-opacity:1" />
	<path
   d="M 455.5,392 H 447 V 79.5 C 447,66.542 436.458,56 423.5,56 H 39.5 C 26.542,56 16,66.542 16,79.5 V 392 H 7.5 c -4.143,0 -7.5,3.358 -7.5,7.5 0,4.142 3.357,7.5 7.5,7.5 h 448 c 4.143,0 7.5,-3.358 7.5,-7.5 0,-4.142 -3.357,-7.5 -7.5,-7.5 z M 31,79.5 C 31,74.813 34.813,71 39.5,71 h 384 c 4.687,0 8.5,3.813 8.5,8.5 V 392 H 31 Z"
   id="path2-1"
   style="fill:#fffbb1;fill-opacity:1;stroke:#fffbb1;stroke-opacity:1" />
	<path
   d="m 215.5,288 c 4.143,0 7.5,-3.358 7.5,-7.5 v -40 c 0,-4.687 3.813,-8.5 8.5,-8.5 4.687,0 8.5,3.813 8.5,8.5 v 40 c 0,4.142 3.357,7.5 7.5,7.5 4.143,0 7.5,-3.358 7.5,-7.5 v -40 c 0,-4.687 3.813,-8.5 8.5,-8.5 4.687,0 8.5,3.813 8.5,8.5 v 40 c 0,4.142 3.357,7.5 7.5,7.5 4.143,0 7.5,-3.358 7.5,-7.5 v -40 c 0,-12.958 -10.542,-23.5 -23.5,-23.5 -6.177,0 -11.801,2.399 -16,6.31 -4.199,-3.911 -9.823,-6.31 -16,-6.31 -3.755,0 -7.304,0.89 -10.455,2.462 C 219.673,217.953 217.7,217 215.5,217 c -4.143,0 -7.5,3.358 -7.5,7.5 v 56 c 0,4.142 3.357,7.5 7.5,7.5 z"
   id="path3-0"
   style="fill:#fffbb1;fill-opacity:1;stroke:#fffbb1;stroke-opacity:1" />
	<path
   d="m 95.5,288 h 48 c 4.143,0 7.5,-3.358 7.5,-7.5 0,-4.142 -3.357,-7.5 -7.5,-7.5 H 103 v -33 h 24.5 c 4.143,0 7.5,-3.358 7.5,-7.5 0,-4.142 -3.357,-7.5 -7.5,-7.5 H 103 v -33 h 40.5 c 4.143,0 7.5,-3.358 7.5,-7.5 0,-4.142 -3.357,-7.5 -7.5,-7.5 h -48 c -4.143,0 -7.5,3.358 -7.5,7.5 v 96 c 0,4.142 3.357,7.5 7.5,7.5 z"
   id="path4-6"
   style="fill:#fffbb1;fill-opacity:1;stroke:#fffbb1;stroke-opacity:1" />
	<path
   d="m 167.5,240 h 16 c 4.143,0 7.5,-3.358 7.5,-7.5 0,-4.142 -3.357,-7.5 -7.5,-7.5 h -16 c -4.143,0 -7.5,3.358 -7.5,7.5 0,4.142 3.357,7.5 7.5,7.5 z"
   id="path5"
   style="fill:#fffbb1;fill-opacity:1;stroke:#fffbb1;stroke-opacity:1" />
	<path
   d="m 167.5,272 h 16 c 4.143,0 7.5,-3.358 7.5,-7.5 0,-4.142 -3.357,-7.5 -7.5,-7.5 h -16 c -4.143,0 -7.5,3.358 -7.5,7.5 0,4.142 3.357,7.5 7.5,7.5 z"
   id="path6-3"
   style="fill:#fffbb1;fill-opacity:1;stroke:#fffbb1;stroke-opacity:1" />
	<path
   d="m 327.5,288 c 8.479,0 16.434,-3.749 22.401,-10.556 2.73,-3.115 2.419,-7.853 -0.695,-10.583 -3.115,-2.731 -7.854,-2.419 -10.584,0.696 -3.078,3.51 -7.027,5.444 -11.122,5.444 -9.098,0 -16.5,-9.196 -16.5,-20.5 0,-11.304 7.402,-20.5 16.5,-20.5 4.095,0 8.044,1.934 11.122,5.444 2.73,3.115 7.469,3.427 10.584,0.696 3.114,-2.73 3.426,-7.469 0.695,-10.583 C 343.934,220.749 335.979,217 327.5,217 c -17.369,0 -31.5,15.925 -31.5,35.5 0,19.575 14.131,35.5 31.5,35.5 z"
   id="path7"
   style="fill:#fffbb1;fill-opacity:1;stroke:#fffbb1;stroke-opacity:1" />
	<path
   d="m 343.5,216 h 28 c 4.143,0 7.5,-3.358 7.5,-7.5 0,-4.142 -3.357,-7.5 -7.5,-7.5 H 351 v -4.5 c 0,-2.481 2.019,-4.5 4.5,-4.5 h 4 c 10.752,0 19.5,-8.748 19.5,-19.5 0,-10.752 -8.748,-19.5 -19.5,-19.5 h -8 c -8.547,0 -15.5,6.953 -15.5,15.5 0,4.142 3.357,7.5 7.5,7.5 4.143,0 7.5,-3.358 7.5,-7.5 0,-0.276 0.225,-0.5 0.5,-0.5 h 8 c 2.481,0 4.5,2.019 4.5,4.5 0,2.481 -2.019,4.5 -4.5,4.5 h -4 c -10.752,0 -19.5,8.748 -19.5,19.5 v 12 c 0,4.142 3.357,7.5 7.5,7.5 z"
   id="path8-2"
   style="fill:#fffbb1;fill-opacity:1;stroke:#fffbb1;stroke-opacity:1" />
</g></g><g
       style="fill:#fffbb1;fill-opacity:1;stroke:#fffbb1;stroke-opacity:1;opacity:0.08"
       id="g23"
       transform="matrix(0.03996591,0,0,0.03996591,-230.52053,-146.86044)"><g
         id="g5-2"
         style="fill:#fffbb1;fill-opacity:1;stroke:#fffbb1;stroke-opacity:1">
	<path
   d="m 460.387,136.676 c -8.356,-20.176 -34.258,-26.559 -54.514,-28.36 -26.138,-2.324 -60.227,1.072 -98.591,9.825 -0.377,0.086 -0.736,0.208 -1.086,0.345 C 284.008,103.781 258.225,96 231.46,96 166.049,96 111.315,142.59 98.698,204.328 25.712,249.967 -10.226,295.521 2.534,326.324 c 7.946,19.186 32.361,29.099 71.13,29.098 6.981,0 14.434,-0.322 22.332,-0.969 18.778,-1.538 39.281,-4.886 60.85,-9.857 22.162,14.65 47.91,22.404 74.614,22.404 64.423,0 119.957,-45.44 132.761,-108.307 18.755,-11.731 35.61,-23.855 49.968,-36.039 39.601,-33.607 55.576,-63.338 46.198,-85.978 z M 231.46,111 c 24.476,0 48.033,7.293 68.126,21.092 18.821,12.924 33.444,30.697 42.465,51.517 -1.356,2.009 -7.336,9.016 -31.102,22.768 -20.038,11.597 -46.646,24.433 -74.923,36.146 -28.275,11.712 -56.167,21.45 -78.536,27.42 -26.586,7.094 -35.751,6.35 -38.106,5.89 C 113.8,261.73 110.961,246.821 110.961,231.501 110.96,165.056 165.016,111 231.46,111 Z m 0,241 c -18.84,0 -37.139,-4.345 -53.737,-12.634 27.787,-7.503 56.929,-17.471 86.164,-29.581 29.251,-12.116 56.921,-25.683 81.886,-40.034 C 329.599,318.244 283.829,352 231.46,352 Z M 404.484,211.217 c -35.77,30.354 -87.739,60.438 -146.337,84.711 -58.597,24.271 -116.618,39.747 -163.375,43.575 -42.724,3.499 -72.023,-3.575 -78.38,-18.919 -7.352,-17.748 14.839,-54.049 79.794,-96.825 -0.145,2.563 -0.226,5.142 -0.226,7.741 0,2.955 0.102,5.895 0.289,8.821 -27.979,19.505 -58.194,46.507 -49.431,67.66 3.244,7.833 11.042,13.031 23.177,15.449 0.495,0.099 0.987,0.146 1.474,0.146 3.504,0 6.637,-2.468 7.348,-6.035 0.81,-4.063 -1.827,-8.012 -5.89,-8.821 -6.725,-1.34 -11.075,-3.641 -12.251,-6.479 -1.526,-3.687 1.481,-10.608 8.048,-18.518 6.6,-7.95 16.762,-17.009 29.673,-26.494 1.648,8.569 4.125,16.959 7.425,25.107 0.235,0.581 0.55,1.101 0.902,1.586 2.333,4.829 7.54,7.223 16.588,7.222 7.641,0 18.018,-1.704 31.692,-5.077 24.065,-5.938 54.877,-16.481 86.761,-29.688 31.884,-13.206 61.127,-27.539 82.343,-40.357 20.775,-12.552 31.1,-21.678 32.936,-29.56 0.763,-1.776 0.846,-3.843 0.064,-5.776 -3.59,-8.868 -8.087,-17.257 -13.379,-25.082 15.79,-2.415 29.346,-3.195 39.624,-2.259 10.296,0.941 17.357,3.713 18.891,7.413 1.563,3.774 -1.399,12.439 -14.403,25.438 -2.929,2.929 -2.93,7.678 -0.002,10.607 1.465,1.465 3.385,2.197 5.305,2.197 1.919,0 3.838,-0.731 5.303,-2.195 16.407,-16.401 22.348,-30.461 17.655,-41.787 -8.752,-21.133 -49.126,-18.898 -82.781,-12.893 -3.638,-4.141 -7.54,-8.058 -11.678,-11.744 66.585,-13.613 116.158,-9.037 124.887,12.034 6.355,15.346 -9.363,41.065 -42.046,68.802 z"
   id="path1-2"
   style="fill:#fffbb1;fill-opacity:1;stroke:#fffbb1;stroke-opacity:1" />
	<path
   d="m 315.85,236.302 c -21.203,11.631 -44.355,22.666 -68.815,32.798 -53.976,22.356 -106.541,37.043 -144.219,40.294 -4.127,0.356 -7.184,3.99 -6.828,8.117 0.338,3.908 3.613,6.855 7.464,6.855 0.216,0 0.435,-0.009 0.653,-0.027 39.146,-3.378 93.334,-18.461 148.67,-41.382 24.962,-10.34 48.61,-21.612 70.29,-33.505 3.631,-1.992 4.96,-6.551 2.968,-10.183 -1.992,-3.63 -6.55,-4.961 -10.183,-2.967 z"
   id="path2-6"
   style="fill:#fffbb1;fill-opacity:1;stroke:#fffbb1;stroke-opacity:1" />
	<path
   d="m 363.06,206.846 c -4.704,3.409 -9.797,6.898 -15.137,10.369 -3.474,2.257 -4.459,6.902 -2.201,10.375 1.437,2.211 3.841,3.414 6.295,3.414 1.401,0 2.818,-0.393 4.08,-1.213 5.553,-3.608 10.856,-7.242 15.766,-10.801 3.354,-2.431 4.103,-7.12 1.671,-10.474 -2.431,-3.355 -7.124,-4.101 -10.474,-1.67 z"
   id="path3-1"
   style="fill:#fffbb1;fill-opacity:1;stroke:#fffbb1;stroke-opacity:1" />
	<path
   d="m 199.458,148.465 c 0.829,0 1.672,-0.139 2.499,-0.431 4.781,-1.689 9.742,-2.972 14.744,-3.811 4.085,-0.686 6.841,-4.553 6.155,-8.638 -0.685,-4.085 -4.557,-6.841 -8.638,-6.155 -5.854,0.982 -11.662,2.483 -17.26,4.461 -3.905,1.38 -5.952,5.664 -4.572,9.57 1.089,3.08 3.982,5.004 7.072,5.004 z"
   id="path4-0"
   style="fill:#fffbb1;fill-opacity:1;stroke:#fffbb1;stroke-opacity:1" />
	<path
   d="m 246.218,144.223 c 19.878,3.335 38.213,13.545 51.628,28.749 1.482,1.681 3.55,2.538 5.627,2.538 1.763,0 3.533,-0.618 4.959,-1.876 3.106,-2.741 3.402,-7.48 0.662,-10.586 -15.686,-17.776 -37.134,-29.716 -60.394,-33.618 -4.084,-0.684 -7.952,2.07 -8.638,6.155 -0.686,4.085 2.071,7.953 6.156,8.638 z"
   id="path5-6"
   style="fill:#fffbb1;fill-opacity:1;stroke:#fffbb1;stroke-opacity:1" />
</g></g><g
       style="fill:#fffbb1;fill-opacity:1;stroke:#fffbb1;stroke-opacity:1;opacity:0.08"
       id="g24"
       transform="matrix(0.02090922,0,0,0.02090922,-184.82876,-152.93266)"><g
         id="g2-1"
         style="fill:#fffbb1;fill-opacity:1;stroke:#fffbb1;stroke-opacity:1">
	<g
   id="g1-5"
   style="fill:#fffbb1;fill-opacity:1;stroke:#fffbb1;stroke-opacity:1">
		<path
   d="m 422.957,478.609 h -16.696 v -89.044 c 0,-58.16 -33.276,-108.601 -81.734,-133.565 48.954,-25.22 81.734,-75.864 81.734,-133.565 V 33.391 h 16.696 c 9.217,0 16.696,-7.473 16.696,-16.696 C 439.652,7.473 432.174,0 422.957,0 355.995,0 156.678,0 89.044,0 79.827,0 72.348,7.473 72.348,16.696 c 0,9.223 7.479,16.696 16.696,16.696 h 16.696 v 89.044 c 0,57.692 32.771,108.341 81.734,133.565 -48.459,24.964 -81.734,75.405 -81.734,133.565 V 478.61 H 89.044 c -9.217,0 -16.696,7.473 -16.696,16.696 0,9.223 7.479,16.696 16.696,16.696 111.521,0 222.498,0 333.913,0 9.217,0 16.696,-7.473 16.696,-16.696 -0.001,-9.224 -7.479,-16.697 -16.696,-16.697 z M 139.641,132.511 c -0.817,-9.509 -0.511,-5.456 -0.511,-99.12 h 233.74 c 0,93.664 0.306,89.611 -0.511,99.12 z m 233.229,327.15 c -92.104,-76.755 -88.747,-75.372 -100.174,-79.41 v -18.512 c 0,-9.223 -7.479,-16.696 -16.696,-16.696 -9.217,0 -16.696,7.473 -16.696,16.696 v 18.511 c -11.307,3.996 -7.768,2.403 -100.174,79.41 v -70.095 c 0,-58.759 43.63,-107.391 100.174,-115.536 v 20.927 c 0,9.223 7.479,16.696 16.696,16.696 9.217,0 16.696,-7.473 16.696,-16.696 v -20.927 c 56.544,8.145 100.174,56.777 100.174,115.536 z"
   id="path1-94"
   style="fill:#fffbb1;fill-opacity:1;stroke:#fffbb1;stroke-opacity:1" />
	</g>
</g></g><g
       id="g25"
       style="stroke:#fffbb1;stroke-opacity:1;opacity:0.08;fill:#fffbb1;fill-opacity:1"><g
         id="g18"
         style="stroke-width:0.3;stroke-dasharray:none;stroke:#fffbb1;stroke-opacity:1;fill:#fffbb1;fill-opacity:1"><path
           style="fill:#fffbb1;fill-opacity:1;stroke:#fffbb1;stroke-width:0.3;stroke-dasharray:none;stroke-opacity:1"
           d="m -238.99175,-168.36837 c 0,-0.13483 -0.10917,-0.24427 -0.24427,-0.24427 -1.4101,0 -2.55738,1.14728 -2.55738,2.55738 0,0.13483 0.10917,0.24427 0.24427,0.24427 0.13507,0 0.24427,-0.10944 0.24427,-0.24427 0,-1.14068 0.9282,-2.06887 2.06887,-2.06887 0.13507,0 0.24424,-0.10917 0.24424,-0.24424 z"
           id="path1-67" /><path
           style="fill:#fffbb1;fill-opacity:1;stroke:#fffbb1;stroke-width:0.3;stroke-dasharray:none;stroke-opacity:1"
           d="m -242.81977,-166.05526 c 0,0.83829 0.2709,1.6309 0.78357,2.29214 0.002,0.003 0.005,0.006 0.008,0.01 1.06913,1.48411 0.80337,2.19003 0.80337,2.19124 -0.0572,0.12212 -0.004,0.26747 0.11774,0.32486 0.0335,0.0156 0.0686,0.0232 0.10331,0.023 0.0918,0 0.17978,-0.052 0.22128,-0.14069 0.0442,-0.0938 0.3935,-0.96802 -0.86224,-2.70175 -0.006,-0.008 -0.0112,-0.0149 -0.0176,-0.0217 -0.43746,-0.57157 -0.66854,-1.2545 -0.66854,-1.9768 0,-1.79482 1.46043,-3.25498 3.25498,-3.25498 1.79455,0 3.25505,1.46016 3.25505,3.25498 0,0.72422 -0.23253,1.40986 -0.67684,1.98777 -1.25645,1.73496 -0.893,2.61919 -0.84757,2.71445 0.0574,0.11945 0.19833,0.16831 0.319,0.11431 0.12068,-0.054 0.17537,-0.19761 0.12432,-0.31973 -0.003,-0.007 -0.28286,-0.72716 0.7958,-2.21689 0.50609,-0.65854 0.7738,-1.44676 0.7738,-2.27967 0,-2.06424 -1.67928,-3.74352 -3.74353,-3.74352 -2.06424,0 -3.74373,1.67955 -3.74373,3.74352 z"
           id="path2-5" /><path
           style="fill:#fffbb1;fill-opacity:1;stroke:#fffbb1;stroke-width:0.3;stroke-dasharray:none;stroke-opacity:1"
           d="m -236.89601,-160.27415 v -0.20761 c 0,-0.33096 -0.26942,-0.60014 -0.60015,-0.60014 h -3.29161 c -0.33096,0 -0.60015,0.26918 -0.60015,0.60014 v 0.20761 c 0,0.33073 0.26919,0.60015 0.60015,0.60015 h 3.29188 c 0.33073,0 0.59988,-0.26918 0.59988,-0.60015 z m -4.00339,0 v -0.20761 c 0,-0.0615 0.0501,-0.11163 0.11163,-0.11163 h 3.29188 c 0.0615,0 0.11164,0.0501 0.11164,0.11163 v 0.20761 c 0,0.0615 -0.0501,0.11164 -0.11164,0.11164 h -3.29188 c -0.0616,0 -0.11163,-0.0501 -0.11163,-0.11164 z"
           id="path3-3" /><path
           style="fill:#fffbb1;fill-opacity:1;stroke:#fffbb1;stroke-width:0.3;stroke-dasharray:none;stroke-opacity:1"
           d="m -240.39232,-159.30271 c -0.13507,0 -0.24427,0.10944 -0.24427,0.24427 v 0.6451 c 0,0.0957 0.0559,0.18246 0.14288,0.22228 l 1.31632,0.60063 c 0.0322,0.0147 0.0667,0.022 0.10135,0.022 0.0357,0 0.0713,-0.008 0.10431,-0.0234 l 1.31998,-0.62286 c 0.0855,-0.0403 0.13997,-0.12627 0.13997,-0.2208 v -0.62263 c 0,-0.13483 -0.10917,-0.24427 -0.24428,-0.24427 -0.1351,0 -0.24427,0.10944 -0.24427,0.24427 v 0.46799 l -1.07742,0.50856 -1.07033,-0.48852 v -0.48803 c 0,-0.13537 -0.10917,-0.24454 -0.24424,-0.24454 z"
           id="path4-5" /><path
           style="fill:#fffbb1;fill-opacity:1;stroke:#fffbb1;stroke-width:0.3;stroke-dasharray:none;stroke-opacity:1"
           d="m -233.38552,-161.64148 c 0.0801,-0.10845 0.0569,-0.26137 -0.0515,-0.34149 l -1.65705,-1.22177 c -0.10869,-0.0801 -0.26137,-0.0572 -0.34148,0.0515 -0.0801,0.10845 -0.0569,0.26137 0.0515,0.34148 l 1.65705,1.22178 c 0.0437,0.0322 0.0945,0.0476 0.14484,0.0476 0.0748,2.4e-4 0.14877,-0.0342 0.19664,-0.0992 z"
           id="path5-62" /><path
           style="fill:#fffbb1;fill-opacity:1;stroke:#fffbb1;stroke-width:0.3;stroke-dasharray:none;stroke-opacity:1"
           d="m -243.09457,-168.49614 c 0.0437,0.0322 0.0945,0.0476 0.14484,0.0476 0.075,0 0.14874,-0.0344 0.19688,-0.0994 0.0801,-0.10845 0.0569,-0.26137 -0.0515,-0.34148 l -1.69443,-1.24915 c -0.10845,-0.0804 -0.26137,-0.0569 -0.34148,0.0515 -0.0801,0.10869 -0.0572,0.26161 0.0515,0.34172 z"
           id="path6-9" /><path
           style="fill:#fffbb1;fill-opacity:1;stroke:#fffbb1;stroke-width:0.3;stroke-dasharray:none;stroke-opacity:1"
           d="m -243.01761,-163.28879 -1.77088,1.30579 c -0.10844,0.0801 -0.13164,0.23304 -0.0515,0.34149 0.0479,0.065 0.12188,0.0994 0.19688,0.0994 0.0503,0 0.10112,-0.0154 0.14484,-0.0476 l 1.77087,-1.3058 c 0.10845,-0.0801 0.13165,-0.23303 0.0515,-0.34148 -0.0806,-0.10869 -0.23328,-0.13164 -0.34172,-0.0518 z"
           id="path7-1" /><path
           style="fill:#fffbb1;fill-opacity:1;stroke:#fffbb1;stroke-width:0.3;stroke-dasharray:none;stroke-opacity:1"
           d="m -235.31175,-168.96999 c -0.10845,0.0801 -0.13164,0.23303 -0.0515,0.34148 0.0479,0.065 0.12188,0.0994 0.19688,0.0994 0.0503,0 0.10112,-0.0156 0.14484,-0.0476 l 1.58499,-1.16853 c 0.10844,-0.0801 0.13164,-0.23303 0.0515,-0.34148 -0.0801,-0.10845 -0.23279,-0.13188 -0.34148,-0.0515 z"
           id="path8-27" /><path
           style="fill:#fffbb1;fill-opacity:1;stroke:#fffbb1;stroke-width:0.3;stroke-dasharray:none;stroke-opacity:1"
           d="m -232.42532,-166.10827 h -1.86832 c -0.13508,0 -0.24427,0.10944 -0.24427,0.24427 0,0.13484 0.10916,0.24428 0.24427,0.24428 h 1.86832 c 0.13507,0 0.24427,-0.10944 0.24427,-0.24428 0,-0.13483 -0.1092,-0.24427 -0.24427,-0.24427 z"
           id="path9" /><path
           style="fill:#fffbb1;fill-opacity:1;stroke:#fffbb1;stroke-width:0.3;stroke-dasharray:none;stroke-opacity:1"
           d="m -243.65782,-165.864 c 0,-0.13483 -0.10917,-0.24427 -0.24427,-0.24427 H -245.83 c -0.13507,0 -0.24427,0.10944 -0.24427,0.24427 0,0.13484 0.10917,0.24428 0.24427,0.24428 h 1.92794 c 0.1348,-3e-5 0.24424,-0.10944 0.24424,-0.24428 z"
           id="path10-0" /></g><rect
         style="fill:#fffbb1;fill-opacity:1;stroke:#fffbb1;stroke-width:0.3;stroke-dasharray:none;stroke-opacity:1"
         id="rect19"
         width="3.4992661"
         height="0.49054539"
         x="-240.83647"
         y="-160.71803" /></g><g
       id="g2-3"
       style="fill:#fffbb1;fill-opacity:1;stroke:#fffbb1;stroke-width:13.4371;stroke-dasharray:none;stroke-opacity:1;opacity:0.08"
       transform="matrix(0,0.02633303,-0.03692473,0,-234.99578,-221.21821)">
	<g
   id="g2-2"
   style="fill:#fffbb1;fill-opacity:1;stroke:#fffbb1;stroke-width:13.4371;stroke-dasharray:none;stroke-opacity:1">
		<path
   d="m 458.624,191.979 c -16.021,0 -25.387,6.101 -34.368,11.947 -3.499,2.261 -7.701,2.325 -11.264,0.192 -3.563,-2.133 -5.504,-5.909 -5.163,-10.048 l 8.107,-97.216 c 0.256,-2.965 -0.768,-5.909 -2.773,-8.107 -2.027,-2.197 -4.864,-3.456 -7.851,-3.456 h -95.701 c -7.829,0 -14.997,4.267 -18.752,11.136 -3.712,6.848 -3.435,15.147 0.768,21.653 4.267,6.613 7.04,11.605 7.04,20.544 0,17.643 -19.136,32 -42.667,32 -23.531,0 -42.667,-14.357 -42.667,-32 0,-8.939 2.773,-13.931 7.019,-20.523 4.224,-6.549 4.501,-14.848 0.789,-21.675 C 217.386,89.557 210.218,85.29 202.389,85.29 h -95.723 c -2.965,0 -5.824,1.259 -7.851,3.456 -2.005,2.197 -3.029,5.141 -2.773,8.107 l 8.107,97.216 c 0.341,4.16 -1.6,7.915 -5.163,10.048 -3.584,2.133 -7.808,2.048 -12.011,-0.683 -8.256,-5.355 -17.621,-11.456 -33.643,-11.456 -29.397,0 -53.333,28.715 -53.333,64 0,35.285 23.936,64 53.333,64 16.021,0 25.387,-6.101 34.368,-11.947 3.499,-2.261 7.701,-2.325 11.264,-0.192 3.563,2.133 5.504,5.909 5.163,10.048 l -8.107,97.216 c -0.256,2.965 0.768,5.909 2.773,8.107 2.027,2.197 4.864,3.456 7.851,3.456 h 95.723 c 7.829,0 14.997,-4.267 18.752,-11.136 3.712,-6.848 3.435,-15.147 -0.768,-21.653 -4.267,-6.613 -7.04,-11.605 -7.04,-20.544 0,-17.643 19.136,-32 42.667,-32 23.531,0 42.667,14.357 42.667,32 0,8.939 -2.773,13.931 -7.019,20.523 -4.224,6.549 -4.501,14.848 -0.789,21.675 3.755,6.869 10.923,11.136 18.752,11.136 h 95.723 c 2.987,0 5.824,-1.259 7.829,-3.456 2.005,-2.197 3.029,-5.141 2.773,-8.107 l -8.107,-97.216 c -0.341,-4.16 1.6,-7.915 5.163,-10.048 3.563,-2.155 7.787,-2.048 12.011,0.683 8.256,5.355 17.621,11.456 33.643,11.456 29.397,0 53.333,-28.715 53.333,-64 0,-35.285 -23.936,-64 -53.333,-64 z m 0,106.688 c -9.685,0 -14.848,-3.349 -22.763,-8.512 -10.325,-6.72 -23.275,-6.933 -33.813,-0.619 -10.56,6.315 -16.491,17.856 -15.467,30.123 l 7.125,85.675 -84.139,0.064 c 5.269,-8.192 10.411,-17.408 10.411,-32.064 0,-29.397 -28.715,-53.333 -64,-53.333 -35.285,0 -64,23.936 -64,53.333 0,14.656 5.141,23.872 10.389,32 H 118.25 l 7.125,-85.675 c 1.024,-12.267 -4.907,-23.808 -15.467,-30.123 -10.56,-6.336 -23.531,-6.08 -34.603,1.131 -7.147,4.651 -12.288,8 -21.995,8 -17.643,0 -32,-19.136 -32,-42.667 0,-23.531 14.357,-42.667 32,-42.667 9.685,0 14.848,3.349 22.763,8.512 10.304,6.699 23.275,6.912 33.813,0.619 10.56,-6.315 16.491,-17.856 15.467,-30.123 l -7.125,-85.675 84.139,-0.064 c -5.269,8.192 -10.411,17.408 -10.411,32.064 0,29.397 28.715,53.333 64,53.333 35.285,0 64,-23.936 64,-53.333 0,-14.656 -5.141,-23.872 -10.389,-32 h 84.117 l -7.125,85.675 c -1.024,12.267 4.907,23.808 15.467,30.123 10.539,6.293 23.488,6.059 34.603,-1.131 7.147,-4.651 12.288,-8 21.995,-8 17.643,0 32,19.136 32,42.667 0,23.531 -14.357,42.667 -32,42.667 z"
   id="path1-6-5"
   style="fill:#fffbb1;fill-opacity:1;stroke:#fffbb1;stroke-width:13.4371;stroke-dasharray:none;stroke-opacity:1" />
	</g>
</g><g
       id="g1"
       style="fill:#fffbb1;fill-opacity:1;stroke:#fffbb1;stroke-width:0.2;stroke-dasharray:none;stroke-opacity:1;opacity:0.08"
       transform="matrix(0.97645397,0,0,0.97645397,-23.057573,-10.30253)"><g
         id="g2-27"
         transform="matrix(0.02425781,0,0,0.02425781,-132.50586,-141.75705)"
         style="fill:#fffbb1;fill-opacity:1;stroke:#fffbb1;stroke-width:8.24477;stroke-dasharray:none;stroke-opacity:1"><path
   style="color:#000000;fill:#fffbb1;fill-opacity:1;stroke:#fffbb1;stroke-width:8.24477;stroke-dasharray:none;stroke-opacity:1"
   d="m 658.88281,-174.48828 c -142.26738,0 -258.05078,115.783401 -258.05078,258.05078 0,142.26738 115.7834,258.05078 258.05078,258.05078 142.26738,0 258.05078,-115.7834 258.05078,-258.05078 0,-142.267379 -115.7834,-258.05078 -258.05078,-258.05078 z m 0,42.25391 c 119.43143,0 215.79688,96.36544 215.79688,215.79687 0,119.43143 -96.36545,215.79687 -215.79688,215.79687 -119.43143,0 -215.79687,-96.36544 -215.79687,-215.79687 0,-119.43143 96.36544,-215.79687 215.79687,-215.79687 z"
   id="path1" />
	
	
	
<g
   id="text1"
   style="fill:#fffbb1;fill-opacity:1;stroke:#fffbb1;stroke-width:8.24477;stroke-dasharray:none;stroke-opacity:1"><path
     style="color:#000000;-inkscape-font-specification:'Noto Sans CJK SC';fill:#fffbb1;fill-opacity:1;stroke:#fffbb1;stroke-width:8.24477;stroke-dasharray:none;stroke-opacity:1"
     d="m 639.25025,139.37088 h 29.44925 c -6.54427,-57.080646 58.89851,-78.531336 58.89851,-131.9762749 0,-39.9928111 -26.90426,-64.7156401 -67.98778,-64.7156401 -29.44925,0 -52.7178,14.179269 -69.44207,33.448533 l 18.9057,17.4514086 c 12.72498,-14.5428406 28.72211,-23.2685446 46.90066,-23.2685446 26.17711,0 39.26567,17.451408 39.26567,39.2656692 0,43.2649508 -64.71564,66.5334958 -55.98994,129.7948488 z m 15.63356,85.07562 c 13.45212,0 24.35925,-10.17999 24.35925,-25.0864 0,-15.26998 -10.90713,-25.44997 -24.35925,-25.44997 -13.45213,0 -23.63212,10.17999 -23.63212,25.44997 0,14.90641 10.17999,25.0864 23.63212,25.0864 z"
     id="path26" /><path
     style="color:#000000;-inkscape-font-specification:'Noto Sans CJK SC';fill:#fffbb1;fill-opacity:1;stroke:#fffbb1;stroke-width:8.24477;stroke-dasharray:none;stroke-opacity:1"
     d="m 659.60937,-61.443359 c -30.77245,0 -55.24593,14.926454 -72.55468,34.86914 l -2.6211,3.019532 24.95508,23.03515575 2.78711,-3.18750005 c 12.1356,-13.8692637 26.93946,-21.8593747 43.79883,-21.8593747 12.17246,0 20.69751,3.925726 26.41992,10.125 5.72241,6.1992733 8.72266,14.93493457 8.72266,25.0175779 0,19.5770371 -15.12477,35.4998721 -30.38086,54.8457031 -15.2561,19.345831 -30.131,42.446765 -25.57031,75.511715 l 0.49218,3.56055 h 3.5918 34.07227 l -0.52735,-4.59375 C 669.70657,111.96302 683.41844,93.713868 698.89648,74.615234 714.37452,55.5166 731.7207,35.799578 731.7207,7.3945312 c 0,-20.9207982 -7.14278,-38.3476282 -19.88281,-50.3554682 -12.74003,-12.007841 -30.85987,-18.482422 -52.22852,-18.482422 z m 0,8.24414 c 19.71484,0 35.59126,5.886527 46.57422,16.238282 10.98296,10.351754 17.29297,25.283496 17.29297,44.3554682 0,25.0398388 -15.37712,42.7712278 -30.98437,62.0292968 -14.78469,18.243094 -29.48045,38.161712 -28.07227,65.824222 h -21.3418 c -2.66247,-28.18709 9.82317,-47.575037 24.13282,-65.720706 14.92027,-18.919979 32.15234,-36.263302 32.15234,-59.9511721 0,-11.7315961 -3.54402,-22.6293939 -10.91016,-30.6093749 -7.36613,-7.979982 -18.47388,-12.779297 -32.47851,-12.779297 -18.12148,0 -34.20806,8.241377 -47.08399,21.611328 l -12.86718,-11.876953 c 15.87296,-17.037182 36.98278,-29.121094 63.58593,-29.121094 z m -4.7246,222.986329 c -15.53188,0 -27.75586,12.47013 -27.75586,29.57226 0,16.78326 12.22398,29.20899 27.75586,29.20899 15.53186,0 28.48046,-12.29167 28.48046,-29.20899 0,-17.233 -12.9486,-29.57226 -28.48046,-29.57226 z m 0,8.24609 c 11.37234,0 20.23632,8.01925 20.23632,21.32617 0,12.89548 -8.86398,20.96485 -20.23632,20.96485 -11.37236,0 -19.50977,-7.93531 -19.50977,-20.96485 0,-13.43779 8.13741,-21.32617 19.50977,-21.32617 z"
     id="path27" /></g></g></g></g><style
     type="text/css"
     id="style1">
	.st0{fill:#000000;}
</style><style
     type="text/css"
     id="style1-2">
	.st0{fill:#000000;}
</style><style
     type="text/css"
     id="style1-29">
	.st0{fill:#000000;}
</style><style
     type="text/css"
     id="style1-3">
	.st0{fill:#000000;}
</style><style
     type="text/css"
     id="style1-36">
	.st0{fill:#000000;}
</style><style
     type="text/css"
     id="style1-291">
	.st0{fill:#000000;}
</style></svg>
