<?xml version="1.0" encoding="UTF-8" standalone="no"?>
<!-- Created with Inkscape (http://www.inkscape.org/) -->

<svg
   version="1.1"
   id="svg1"
   width="1920"
   height="1080"
   viewBox="0 0 1920 1080"
   sodipodi:docname="bg_diploma.svg"
   inkscape:version="1.3.2 (091e20ef0f, 2023-11-25, custom)"
   xmlns:inkscape="http://www.inkscape.org/namespaces/inkscape"
   xmlns:sodipodi="http://sodipodi.sourceforge.net/DTD/sodipodi-0.dtd"
   xmlns="http://www.w3.org/2000/svg"
   xmlns:svg="http://www.w3.org/2000/svg">
  <defs
     id="defs1">
    <clipPath
       clipPathUnits="userSpaceOnUse"
       id="clipPath46">
      <path
         d="m 4469.34,2378.38 c 0,-33.06 -59.39,-57.87 -67.54,-88.36 -8.43,-31.54 30.35,-82.68 14.36,-110.29 -16.21,-28.02 -80.02,-19.9 -102.75,-42.63 -22.75,-22.73 -14.62,-86.55 -42.63,-102.76 -14.84,-8.58 -36.45,-1.37 -58.17,5.83 -18.72,6.22 -37.52,12.43 -52.13,8.53 -30.48,-8.14 -55.29,-67.53 -88.35,-67.53 -33.06,0 -57.87,59.39 -88.36,67.53 -14.61,3.9 -33.41,-2.31 -52.14,-8.53 -21.72,-7.2 -43.33,-14.41 -58.16,-5.83 -28.01,16.21 -19.89,80.03 -42.63,102.76 -22.73,22.73 -86.54,14.61 -102.75,42.63 -15.98,27.61 22.79,78.75 14.36,110.29 -8.15,30.49 -67.54,55.3 -67.54,88.36 0,33.06 59.39,57.87 67.54,88.36 8.43,31.54 -30.34,82.67 -14.36,110.29 16.21,28.02 80.02,19.89 102.76,42.63 22.73,22.73 14.61,86.55 42.63,102.76 14.83,8.58 36.44,1.37 58.15,-5.83 18.73,-6.22 37.53,-12.43 52.14,-8.53 30.49,8.14 55.3,67.54 88.36,67.54 33.06,0 57.86,-59.4 88.35,-67.54 14.61,-3.9 33.41,2.31 52.13,8.53 21.72,7.2 43.33,14.41 58.17,5.83 28.02,-16.21 19.88,-80.03 42.63,-102.76 22.73,-22.74 86.54,-14.61 102.75,-42.63 15.99,-27.62 -22.79,-78.75 -14.36,-110.29 8.15,-30.49 67.54,-55.3 67.54,-88.36"
         id="path46" />
    </clipPath>
    <clipPath
       clipPathUnits="userSpaceOnUse"
       id="clipPath48">
      <path
         d="m 4469.34,2378.38 c 0,-33.06 -59.39,-57.87 -67.54,-88.36 -8.43,-31.54 30.35,-82.68 14.36,-110.29 -16.21,-28.02 -80.02,-19.9 -102.75,-42.63 -22.75,-22.73 -14.62,-86.55 -42.63,-102.76 -14.84,-8.58 -36.45,-1.37 -58.17,5.83 -18.72,6.22 -37.52,12.43 -52.13,8.53 -30.48,-8.14 -55.29,-67.53 -88.35,-67.53 -33.06,0 -57.87,59.39 -88.36,67.53 -14.61,3.9 -33.41,-2.31 -52.14,-8.53 -21.72,-7.2 -43.33,-14.41 -58.16,-5.83 -28.01,16.21 -19.89,80.03 -42.63,102.76 -22.73,22.73 -86.54,14.61 -102.75,42.63 -15.98,27.61 22.79,78.75 14.36,110.29 -8.15,30.49 -67.54,55.3 -67.54,88.36 0,33.06 59.39,57.87 67.54,88.36 8.43,31.54 -30.34,82.67 -14.36,110.29 16.21,28.02 80.02,19.89 102.76,42.63 22.73,22.73 14.61,86.55 42.63,102.76 14.83,8.58 36.44,1.37 58.15,-5.83 18.73,-6.22 37.53,-12.43 52.14,-8.53 30.49,8.14 55.3,67.54 88.36,67.54 33.06,0 57.86,-59.4 88.35,-67.54 14.61,-3.9 33.41,2.31 52.13,8.53 21.72,7.2 43.33,14.41 58.17,5.83 28.02,-16.21 19.88,-80.03 42.63,-102.76 22.73,-22.74 86.54,-14.61 102.75,-42.63 15.99,-27.62 -22.79,-78.75 -14.36,-110.29 8.15,-30.49 67.54,-55.3 67.54,-88.36"
         id="path48" />
    </clipPath>
    <clipPath
       clipPathUnits="userSpaceOnUse"
       id="clipPath50">
      <path
         d="m 4469.34,2378.38 c 0,-33.06 -59.39,-57.87 -67.54,-88.36 -8.43,-31.54 30.35,-82.68 14.36,-110.29 -16.21,-28.02 -80.02,-19.9 -102.75,-42.63 -22.75,-22.73 -14.62,-86.55 -42.63,-102.76 -14.84,-8.58 -36.45,-1.37 -58.17,5.83 -18.72,6.22 -37.52,12.43 -52.13,8.53 -30.48,-8.14 -55.29,-67.53 -88.35,-67.53 -33.06,0 -57.87,59.39 -88.36,67.53 -14.61,3.9 -33.41,-2.31 -52.14,-8.53 -21.72,-7.2 -43.33,-14.41 -58.16,-5.83 -28.01,16.21 -19.89,80.03 -42.63,102.76 -22.73,22.73 -86.54,14.61 -102.75,42.63 -15.98,27.61 22.79,78.75 14.36,110.29 -8.15,30.49 -67.54,55.3 -67.54,88.36 0,33.06 59.39,57.87 67.54,88.36 8.43,31.54 -30.34,82.67 -14.36,110.29 16.21,28.02 80.02,19.89 102.76,42.63 22.73,22.73 14.61,86.55 42.63,102.76 14.83,8.58 36.44,1.37 58.15,-5.83 18.73,-6.22 37.53,-12.43 52.14,-8.53 30.49,8.14 55.3,67.54 88.36,67.54 33.06,0 57.86,-59.4 88.35,-67.54 14.61,-3.9 33.41,2.31 52.13,8.53 21.72,7.2 43.33,14.41 58.17,5.83 28.02,-16.21 19.88,-80.03 42.63,-102.76 22.73,-22.74 86.54,-14.61 102.75,-42.63 15.99,-27.62 -22.79,-78.75 -14.36,-110.29 8.15,-30.49 67.54,-55.3 67.54,-88.36"
         id="path50" />
    </clipPath>
    <clipPath
       clipPathUnits="userSpaceOnUse"
       id="clipPath55">
      <path
         d="m 4327.33,2378.38 c 0,-140.95 -114.25,-255.21 -255.2,-255.21 -140.96,0 -255.22,114.26 -255.22,255.21 0,140.95 114.26,255.2 255.22,255.2 140.95,0 255.2,-114.25 255.2,-255.2"
         id="path55" />
    </clipPath>
    <clipPath
       clipPathUnits="userSpaceOnUse"
       id="clipPath57">
      <path
         d="m 4327.33,2378.38 c 0,-140.95 -114.25,-255.21 -255.2,-255.21 -140.96,0 -255.22,114.26 -255.22,255.21 0,140.95 114.26,255.2 255.22,255.2 140.95,0 255.2,-114.25 255.2,-255.2"
         id="path57" />
    </clipPath>
    <clipPath
       clipPathUnits="userSpaceOnUse"
       id="clipPath59">
      <path
         d="m 4327.33,2378.38 c 0,-140.95 -114.25,-255.21 -255.2,-255.21 -140.96,0 -255.22,114.26 -255.22,255.21 0,140.95 114.26,255.2 255.22,255.2 140.95,0 255.2,-114.25 255.2,-255.2"
         id="path59" />
    </clipPath>
    <clipPath
       clipPathUnits="userSpaceOnUse"
       id="clipPath61">
      <path
         d="m 4327.33,2378.38 c 0,-140.95 -114.25,-255.21 -255.2,-255.21 -140.96,0 -255.22,114.26 -255.22,255.21 0,140.95 114.26,255.2 255.22,255.2 140.95,0 255.2,-114.25 255.2,-255.2"
         id="path61" />
    </clipPath>
    <clipPath
       clipPathUnits="userSpaceOnUse"
       id="clipPath63">
      <path
         d="m 4327.33,2378.38 c 0,-140.95 -114.25,-255.21 -255.2,-255.21 -140.96,0 -255.22,114.26 -255.22,255.21 0,140.95 114.26,255.2 255.22,255.2 140.95,0 255.2,-114.25 255.2,-255.2"
         id="path63" />
    </clipPath>
    <clipPath
       clipPathUnits="userSpaceOnUse"
       id="clipPath65">
      <path
         d="m 4327.33,2378.38 c 0,-140.95 -114.25,-255.21 -255.2,-255.21 -140.96,0 -255.22,114.26 -255.22,255.21 0,140.95 114.26,255.2 255.22,255.2 140.95,0 255.2,-114.25 255.2,-255.2"
         id="path65" />
    </clipPath>
  </defs>
  <sodipodi:namedview
     id="namedview1"
     pagecolor="#ffffff"
     bordercolor="#000000"
     borderopacity="0.25"
     inkscape:showpageshadow="2"
     inkscape:pageopacity="0.0"
     inkscape:pagecheckerboard="0"
     inkscape:deskcolor="#d1d1d1"
     showgrid="false"
     inkscape:zoom="0.49877451"
     inkscape:cx="818.00491"
     inkscape:cy="609.49386"
     inkscape:window-width="1888"
     inkscape:window-height="1002"
     inkscape:window-x="12"
     inkscape:window-y="58"
     inkscape:window-maximized="1"
     inkscape:current-layer="group-R5">
    <inkscape:page
       x="0"
       y="0"
       inkscape:label="1"
       id="page1"
       width="1920"
       height="1080"
       margin="0"
       bleed="0"
       inkscape:export-filename="bg_diploma.png"
       inkscape:export-xdpi="96"
       inkscape:export-ydpi="96" />
  </sodipodi:namedview>
  <g
     id="g1"
     inkscape:groupmode="layer"
     inkscape:label="1">
    <g
       id="group-R5">
      <g
         id="g66"
         transform="translate(28.41968,4.41597)">
        <path
           id="path4"
           d="M 699.05167,670.3127 H 1164.109 v -324.74 H 699.05167 Z"
           style="fill:#a47140;fill-opacity:1;fill-rule:nonzero;stroke:none;stroke-width:0.133333" />
        <path
           id="path5"
           d="m 702.385,666.97936 h 458.3907 V 348.90604 H 702.385 v 318.07332 m 461.724,6.66667 H 699.05167 c -1.84133,0 -3.33333,-1.49333 -3.33333,-3.33333 v -324.74 c 0,-1.84133 1.492,-3.33333 3.33333,-3.33333 H 1164.109 c 1.8413,0 3.3333,1.492 3.3333,3.33333 v 324.74 c 0,1.84 -1.492,3.33333 -3.3333,3.33333"
           style="fill:#171717;fill-opacity:1;fill-rule:nonzero;stroke:none;stroke-width:0.133333" />
        <path
           id="path6"
           d="M 723.90767,646.4127 H 1139.253 v -276.94 H 723.90767 Z"
           style="fill:#e9e9e7;fill-opacity:1;fill-rule:nonzero;stroke:none;stroke-width:0.133333" />
        <path
           id="path7"
           d="M 727.24233,643.07936 H 1135.9197 V 372.80604 H 727.24233 v 270.27332 m 412.01067,6.66667 H 723.90767 c -1.84,0 -3.33334,-1.492 -3.33334,-3.33333 v -276.94 c 0,-1.84133 1.49334,-3.33333 3.33334,-3.33333 H 1139.253 c 1.8413,0 3.3333,1.492 3.3333,3.33333 v 276.94 c 0,1.84133 -1.492,3.33333 -3.3333,3.33333"
           style="fill:#171717;fill-opacity:1;fill-rule:nonzero;stroke:none;stroke-width:0.133333" />
        <path
           id="path8"
           d="m 847.87033,617.27803 c -46.75333,0 -88.97733,-11.15333 -120.628,-32.07333 v -19.36667 c 26.18667,21.61467 60.11867,32.14133 97.06134,32.14133 43.05333,-0.001 90.18933,-14.29466 133.91466,-41.996 h 68.65867 c -1.052,0.40534 -2.6,0.72134 -3.8307,0.972 -3.504,0.71467 -7.476,1.52667 -9.3906,4.836 -0.7027,1.21334 -0.9694,2.50134 -0.9707,3.81467 v 0 c 0,2.22533 0.76,4.52 1.4627,6.63733 0.059,0.17734 0.1186,0.36 0.18,0.54534 -13.588,7.51466 -27.99604,14.308 -43.1387,20.24666 -41.90667,16.432 -84.2,24.24267 -123.31867,24.24267 m 181.81337,-67.96 h -61.38537 c 12.588,-8.684 24.83066,-18.496 36.55337,-29.42666 46.5226,-43.37734 76.1466,-96.244 86.676,-147.08533 h 44.392 v 75.04799 c -13.428,31.31867 -36.7934,61.756 -67.9094,88.09067 -1.5946,-1.32667 -3.4093,-2.29333 -5.5973,-2.29333 -3.8987,0 -6.6133,3.06933 -9.0093,5.776 -1.16,1.312 -2.7467,3.10666 -3.6334,3.34266 -0.1413,0.0387 -0.3066,0.056 -0.4946,0.056 -1.1307,0 -3.0134,-0.62666 -4.568,-1.144 -2.1134,-0.70133 -4.404,-1.46266 -6.6267,-1.46266 -1.316,0 -2.608,0.26666 -3.824,0.97066 -2.9173,1.688 -3.8933,4.97334 -4.5733,8.128"
           style="fill:#dfdfdd;fill-opacity:1;fill-rule:nonzero;stroke:none;stroke-width:0.133333" />
        <path
           id="path9"
           d="m 1135.9197,643.07936 h -41.5254 c -0.4093,-2.45733 -0.768,-4.856 -1.0826,-7.17066 1.1453,-1.956 1.6386,-4.36934 2.092,-6.59334 0.3573,-1.752 0.8466,-4.15066 1.536,-4.84 0.6893,-0.68933 3.088,-1.17866 4.8373,-1.536 3.5053,-0.71466 7.4773,-1.52533 9.392,-4.836 0.7027,-1.21333 0.9693,-2.50133 0.9707,-3.81466 v 0 c 0,-1.884 -0.544,-3.81867 -1.1387,-5.652 2.36,-0.792 4.8867,-1.22 7.5093,-1.22 1.8414,0 3.3334,-1.49334 3.3334,-3.33334 v -30.02533 c 0,-1.84133 -1.492,-3.33333 -3.3334,-3.33333 -1.8413,0 -3.3333,1.492 -3.3333,3.33333 v 8.94933 c -0.728,-0.72533 -1.5013,-1.40933 -2.2453,-2.06933 -1.312,-1.16 -3.1067,-2.748 -3.3427,-3.632 -0.037,-0.14 -0.055,-0.304 -0.055,-0.488 0,-1.12667 0.6254,-3.01467 1.1427,-4.57333 0.7027,-2.11867 1.464,-4.41334 1.4627,-6.63867 v 0 c 0,-1.31333 -0.268,-2.60133 -0.9707,-3.81467 -1.9147,-3.30933 -5.8867,-4.12133 -9.392,-4.836 -1.7493,-0.35733 -4.148,-0.84666 -4.8373,-1.536 -0.6894,-0.68933 -1.1774,-3.088 -1.536,-4.83733 -0.7147,-3.50533 -1.524,-7.47733 -4.8347,-9.392 -1.216,-0.704 -2.508,-0.97066 -3.8253,-0.97066 -2.2227,0 -4.5147,0.76133 -6.6267,1.46266 -1.556,0.51734 -3.4373,1.144 -4.5667,1.144 -0.188,0 -0.356,-0.0173 -0.4973,-0.056 -0.884,-0.236 -2.472,-2.03066 -3.6307,-3.34266 -1.052,-1.18667 -2.164,-2.44534 -3.412,-3.48267 31.116,-26.33467 54.4814,-56.772 67.9094,-88.09067 v 195.22533 m -102.3107,0 H 727.24233 V 585.2047 c 31.65067,20.92 73.87467,32.07333 120.628,32.07333 39.11867,0 81.412,-7.81067 123.31867,-24.24267 15.14266,-5.93866 29.5507,-12.732 43.1387,-20.24666 0.472,1.436 0.964,3.02933 0.9626,4.02933 0,0.184 -0.017,0.348 -0.055,0.488 -0.2374,0.884 -2.0307,2.472 -3.3427,3.632 -2.7067,2.396 -5.776,5.11067 -5.776,9.00933 v 0 0 0 0 c 0,3.89867 3.0693,6.61334 5.776,9.00934 1.312,1.16 3.1053,2.748 3.3427,3.632 0.037,0.14 0.055,0.304 0.055,0.488 0,1.128 -0.6253,3.01466 -1.1426,4.57466 -0.7027,2.11734 -1.464,4.412 -1.4627,6.63734 v 0 c 0,1.31333 0.268,2.60133 0.9707,3.81466 1.9146,3.31067 5.8866,4.12134 9.3906,4.836 1.7507,0.35734 4.1494,0.84667 4.8374,1.53734 0.6906,0.688 1.18,3.08666 1.5373,4.83866 0.7147,3.50267 1.5253,7.47467 4.8347,9.38934 0.015,0.009 0.031,0.0187 0.045,0.0267 -0.2093,1.396 -0.44,2.84934 -0.692,4.348 m 76.284,-41.084 c 0.6187,-0.89733 1.984,-2.10666 3.0387,-3.03866 0.744,-0.66 1.5173,-1.34267 2.2453,-2.06934 v 4.044 c -1.8133,0.2 -3.58,0.55867 -5.284,1.064"
           style="fill:#d7d9d6;fill-opacity:1;fill-rule:nonzero;stroke:none;stroke-width:0.133333" />
        <path
           id="path10"
           d="m 798.99567,564.8807 c -26.91067,-0.001 -51.73734,-6.03067 -71.75334,-17.736 V 372.80604 h 275.77197 c 10.8094,56.97733 -29.69997,125.78799 -101.5213,164.73066 -8.276,4.488 -16.66267,8.41333 -25.08,11.78133 h -75.65733 c -1.84134,0 -3.33334,1.492 -3.33334,3.332 0,1.84133 1.492,3.33333 3.33334,3.33333 h 56.60666 c -19.86,5.972 -39.61866,8.89734 -58.36666,8.89734"
           style="fill:#f2f2f0;fill-opacity:1;fill-rule:nonzero;stroke:none;stroke-width:0.133333" />
        <path
           id="path11"
           d="M 727.24233,643.07936 H 1135.9197 V 372.80604 H 727.24233 v 270.27332 m 412.01067,6.66667 H 723.90767 c -1.84,0 -3.33334,-1.492 -3.33334,-3.33333 v -276.94 c 0,-1.84133 1.49334,-3.33333 3.33334,-3.33333 H 1139.253 c 1.8413,0 3.3333,1.492 3.3333,3.33333 v 276.94 c 0,1.84133 -1.492,3.33333 -3.3333,3.33333"
           style="fill:#171717;fill-opacity:1;fill-rule:nonzero;stroke:none;stroke-width:0.133333" />
        <path
           id="path13"
           d="m 1118.5103,446.6967 c -1.8413,0 -3.3333,-1.492 -3.3333,-3.33333 V 417.4327 c -14.076,-1.54533 -25.2893,-12.75733 -26.8333,-26.83466 h -26.8734 c -1.8413,0 -3.3333,-1.492 -3.3333,-3.33334 0,-1.84 1.492,-3.33333 3.3333,-3.33333 h 30.024 c 1.8414,0 3.3334,1.49333 3.3334,3.33333 0,13.05867 10.624,23.68267 23.6826,23.68267 1.8414,0 3.3334,1.492 3.3334,3.33333 v 29.08267 c 0,1.84133 -1.492,3.33333 -3.3334,3.33333"
           style="fill:#fab72d;fill-opacity:1;fill-rule:nonzero;stroke:none;stroke-width:0.133333" />
        <path
           id="path14"
           d="m 1091.4943,634.43136 h -29.0813 c -1.8413,0 -3.3333,-1.492 -3.3333,-3.33333 0,-1.84133 1.492,-3.33333 3.3333,-3.33333 h 25.9307 c 1.544,-14.076 12.7573,-25.288 26.8333,-26.83334 v -26.87333 c 0,-1.84133 1.492,-3.33333 3.3333,-3.33333 1.8414,0 3.3334,1.492 3.3334,3.33333 v 30.02533 c 0,1.84 -1.492,3.33334 -3.3334,3.33334 -13.0586,0 -23.6826,10.62266 -23.6826,23.68133 0,1.84133 -1.492,3.33333 -3.3334,3.33333"
           style="fill:#fab72d;fill-opacity:1;fill-rule:nonzero;stroke:none;stroke-width:0.133333" />
        <path
           id="path15"
           d="m 743.71567,447.16737 c -1.84,0 -3.33334,-1.492 -3.33334,-3.33334 v -30.02399 c 0,-1.84134 1.49334,-3.33334 3.33334,-3.33334 13.05866,0 23.68266,-10.624 23.68266,-23.68266 0,-1.84 1.492,-3.33334 3.33334,-3.33334 h 29.08266 c 1.84134,0 3.33334,1.49334 3.33334,3.33334 0,1.84133 -1.492,3.33333 -3.33334,3.33333 h -25.932 c -1.54533,14.07733 -12.756,25.28933 -26.83333,26.83467 v 26.87199 c 0,1.84134 -1.492,3.33334 -3.33333,3.33334"
           style="fill:#fab72d;fill-opacity:1;fill-rule:nonzero;stroke:none;stroke-width:0.133333" />
        <path
           id="path16"
           d="m 800.75567,633.9607 h -30.024 c -1.84134,0 -3.33334,-1.492 -3.33334,-3.33334 0,-13.05866 -10.624,-23.68266 -23.68266,-23.68266 -1.84,0 -3.33334,-1.492 -3.33334,-3.33334 V 574.5287 c 0,-1.84134 1.49334,-3.33334 3.33334,-3.33334 1.84133,0 3.33333,1.492 3.33333,3.33334 v 25.932 c 14.07733,1.544 25.288,12.756 26.83333,26.83333 h 26.87334 c 1.84133,0 3.33333,1.492 3.33333,3.33333 0,1.84134 -1.492,3.33334 -3.33333,3.33334"
           style="fill:#fab72d;fill-opacity:1;fill-rule:nonzero;stroke:none;stroke-width:0.133333" />
        <path
           id="path17"
           d="m 711.089,652.52336 c -2.57733,0 -4.66666,-2.09066 -4.66666,-4.66666 V 357.71937 c 0,-2.57733 2.08933,-4.66667 4.66666,-4.66667 h 440.5347 c 2.5773,0 4.6666,2.08934 4.6666,4.66667 0,2.57733 -2.0893,4.66667 -4.6666,4.66667 H 715.75567 V 647.8567 c 0,2.576 -2.08934,4.66666 -4.66667,4.66666"
           style="fill:#b68c61;fill-opacity:1;fill-rule:nonzero;stroke:none;stroke-width:0.133333" />
        <path
           id="path18"
           d="m 1151.6237,662.2087 h -53.1654 c -0.8266,-3.14134 -1.5613,-6.26267 -2.2133,-9.33334 h 50.712 V 368.61537 c 0,-2.57733 2.0893,-4.66667 4.6667,-4.66667 2.5773,0 4.6666,2.08934 4.6666,4.66667 v 288.92666 c 0,2.57733 -2.0893,4.66667 -4.6666,4.66667 m -122.0094,0 H 711.089 c -2.57733,0 -4.66666,-2.08934 -4.66666,-4.66667 0,-2.576 2.08933,-4.66667 4.66666,-4.66667 h 320.6747 c -0.6294,3.01334 -1.3427,6.14 -2.1494,9.33334"
           style="fill:#7e502a;fill-opacity:1;fill-rule:nonzero;stroke:none;stroke-width:0.133333" />
        <path
           id="path20"
           d="M 1061.4703,499.0007 H 800.75567 c -1.84134,0 -3.33334,-1.492 -3.33334,-3.33333 0,-1.84134 1.492,-3.33334 3.33334,-3.33334 h 260.71463 c 1.8414,0 3.3334,1.492 3.3334,3.33334 0,1.84133 -1.492,3.33333 -3.3334,3.33333"
           style="fill:#171717;fill-opacity:1;fill-rule:nonzero;stroke:none;stroke-width:0.133333" />
        <path
           id="path21"
           d="M 1061.4703,527.49137 H 800.75567 c -1.84134,0 -3.33334,-1.492 -3.33334,-3.33334 0,-1.84133 1.492,-3.33333 3.33334,-3.33333 h 260.71463 c 1.8414,0 3.3334,1.492 3.3334,3.33333 0,1.84134 -1.492,3.33334 -3.3334,3.33334"
           style="fill:#171717;fill-opacity:1;fill-rule:nonzero;stroke:none;stroke-width:0.133333" />
        <path
           id="path22"
           d="M 1033.0397,555.98336 H 800.75567 c -1.84134,0 -3.33334,-1.492 -3.33334,-3.33333 0,-1.84 1.492,-3.332 3.33334,-3.332 h 232.28403 c 1.84,0 3.3333,1.492 3.3333,3.332 0,1.84133 -1.4933,3.33333 -3.3333,3.33333"
           style="fill:#171717;fill-opacity:1;fill-rule:nonzero;stroke:none;stroke-width:0.133333" />
        <path
           id="path23"
           d="m 875.03433,596.87936 h -75.22 c -1.84133,0 -3.33333,-1.492 -3.33333,-3.33333 0,-1.84133 1.492,-3.33333 3.33333,-3.33333 h 75.22 c 1.84133,0 3.33333,1.492 3.33333,3.33333 0,1.84133 -1.492,3.33333 -3.33333,3.33333"
           style="fill:#171717;fill-opacity:1;fill-rule:nonzero;stroke:none;stroke-width:0.133333" />
        <path
           id="path24"
           d="m 1056.6797,603.94336 c -6.3734,44.73734 16.2666,107.2 16.2666,107.2 l 15.1374,-18.27333 22.9533,8.31333 c -24.0693,-38.048 -23.3013,-95.636 -23.3013,-95.636 l -31.056,-1.604"
           style="fill:#bf1c2e;fill-opacity:1;fill-rule:nonzero;stroke:none;stroke-width:0.133333" />
        <path
           id="path25"
           d="m 1059.5983,607.43136 c -3.9346,35.38134 9.4934,81.228 14.596,96.98 l 11.3227,-13.668 c 0.8947,-1.084 2.3773,-1.48533 3.7013,-1.008 l 14.408,5.21867 c -17.0693,-32.83733 -19.012,-74.388 -19.208,-86.24 l -24.82,-1.28267 m 13.348,107.04533 c -0.188,0 -0.38,-0.016 -0.5693,-0.0493 -1.1787,-0.20533 -2.1573,-1.024 -2.564,-2.14933 -0.9373,-2.58134 -22.8507,-63.76133 -16.4333,-108.804 0.2426,-1.70933 1.7746,-2.93067 3.472,-2.86 l 31.056,1.604 c 1.7893,0.0933 3.1853,1.58267 3.1613,3.37333 -0.01,0.56667 -0.4627,57.06134 22.784,93.80933 0.7627,1.204 0.6747,2.76 -0.2187,3.87067 -0.892,1.11067 -2.3933,1.532 -3.7333,1.04533 l -20.748,-7.51333 -13.64,16.46533 c -0.6373,0.772 -1.5827,1.208 -2.5667,1.208"
           style="fill:#171717;fill-opacity:1;fill-rule:nonzero;stroke:none;stroke-width:0.133333" />
        <path
           id="path26"
           d="m 1056.6797,603.94336 c -6.3734,44.73734 16.2666,107.2 16.2666,107.2 l 15.1374,-18.27333 22.9533,8.31333 c -24.0693,-38.048 -23.3013,-95.636 -23.3013,-95.636 l -31.056,-1.604"
           style="fill:#bf1c2e;fill-opacity:1;fill-rule:nonzero;stroke:none;stroke-width:0.133333" />
        <path
           id="path27"
           d="m 1059.5983,607.43136 c -3.9346,35.38134 9.4934,81.228 14.596,96.98 l 11.3227,-13.668 c 0.8947,-1.084 2.3773,-1.48533 3.7013,-1.008 l 14.408,5.21867 c -17.0693,-32.83733 -19.012,-74.388 -19.208,-86.24 l -24.82,-1.28267 m 13.348,107.04533 c -0.188,0 -0.38,-0.016 -0.5693,-0.0493 -1.1787,-0.20533 -2.1573,-1.024 -2.564,-2.14933 -0.9373,-2.58134 -22.8507,-63.76133 -16.4333,-108.804 0.2426,-1.70933 1.7746,-2.93067 3.472,-2.86 l 31.056,1.604 c 1.7893,0.0933 3.1853,1.58267 3.1613,3.37333 -0.01,0.56667 -0.4627,57.06134 22.784,93.80933 0.7627,1.204 0.6747,2.76 -0.2187,3.87067 -0.892,1.11067 -2.3933,1.532 -3.7333,1.04533 l -20.748,-7.51333 -13.64,16.46533 c -0.6373,0.772 -1.5827,1.208 -2.5667,1.208"
           style="fill:#171717;fill-opacity:1;fill-rule:nonzero;stroke:none;stroke-width:0.133333" />
        <path
           id="path28"
           d="m 1071.1317,694.43403 c -1.0694,-3.672 -2.232,-7.87067 -3.4,-12.45867 l 22.796,-23.74 c 1.4346,6.14134 3.2026,12.44134 5.384,18.68134 l -24.78,17.51733"
           style="fill:#b31b2c;fill-opacity:1;fill-rule:nonzero;stroke:none;stroke-width:0.133333" />
        <path
           id="path29"
           d="m 1068.849,696.04736 c 0,0 -1.2747,-4.08133 -3.0307,-10.76133 0.1667,-0.608 0.332,-1.22 0.496,-1.83467 l 1.4174,-1.476 c 1.168,4.588 2.3306,8.78667 3.4,12.45867 l -2.2827,1.61333 m 27.0627,-19.13066 c -2.1814,-6.24 -3.9494,-12.54 -5.384,-18.68134 l 2.9266,-3.048 c -1.336,-5.612 -2.3613,-11.13333 -3.148,-16.33733 0.077,-0.04 0.1547,-0.0827 0.2307,-0.12667 1.6227,11.048 4.1853,23.72 8.232,36.17334 l -2.8573,2.02"
           style="fill:#161616;fill-opacity:1;fill-rule:nonzero;stroke:none;stroke-width:0.133333" />
        <path
           id="path30"
           d="m 1067.7317,681.97536 c -0.168,-0.664 -0.3374,-1.336 -0.5067,-2.016 3.396,-13.32 6.2333,-28.1 7.084,-42.42266 0.2787,-0.208 0.532,-0.35467 0.744,-0.412 0.1427,-0.0387 0.3107,-0.056 0.4987,-0.056 1.1293,0 3.0093,0.62933 4.5653,1.144 2.1133,0.70266 4.4053,1.46266 6.628,1.46266 0.093,0 0.1867,-10e-4 0.2787,-0.004 0.8586,5.83734 1.9973,12.112 3.504,18.564 l -22.796,23.74"
           style="fill:#9f1a27;fill-opacity:1;fill-rule:nonzero;stroke:none;stroke-width:0.133333" />
        <path
           id="path31"
           d="m 1066.3143,683.45136 c 0.3067,-1.15066 0.612,-2.31733 0.9107,-3.492 0.1693,0.68 0.3387,1.352 0.5067,2.016 l -1.4174,1.476 m 24.2134,-25.216 c -1.5067,-6.452 -2.6454,-12.72666 -3.504,-18.564 1.1266,-0.0333 2.2306,-0.272 3.2826,-0.82133 0.7867,5.204 1.812,10.72533 3.148,16.33733 l -2.9266,3.048"
           style="fill:#131414;fill-opacity:1;fill-rule:nonzero;stroke:none;stroke-width:0.133333" />
        <path
           id="path32"
           d="m 1070.8477,619.4847 c 3.84,45.02533 -22.2894,106.11066 -22.2894,106.11066 l -12.7226,-20.812 -24.7427,8.72 c 26.176,-36.62933 28.6573,-94.16933 28.6573,-94.16933 l 31.0974,0.15067"
           style="fill:#bf1c2e;fill-opacity:1;fill-rule:nonzero;stroke:none;stroke-width:0.133333" />
        <path
           id="path33"
           d="m 1035.8357,701.45003 c 1.1346,0 2.2253,0.58133 2.844,1.59466 l 9.2533,15.136 c 6.16,-16.00133 21.7093,-60.31866 19.804,-95.37733 l -24.8533,-0.12 c -0.8587,11.74934 -5.0934,52.68934 -23.6947,84.432 l 15.5387,-5.47467 c 0.3653,-0.12933 0.7386,-0.19066 1.108,-0.19066 m 12.7213,27.47866 c -1.1533,0 -2.2333,-0.59866 -2.8427,-1.59466 l -11.3146,-18.51067 -22.1987,7.82267 c -1.3733,0.488 -2.8987,0.0227 -3.772,-1.14 -0.876,-1.16267 -0.8933,-2.75734 -0.049,-3.94 25.3093,-35.41467 28.016,-91.80933 28.04,-92.37467 0.076,-1.784 1.5466,-3.19066 3.3306,-3.19066 h 0.016 l 31.0974,0.15066 c 1.7253,0.008 3.1586,1.33067 3.3053,3.05067 3.8667,45.33333 -21.4653,105.17866 -22.5453,107.70533 -0.4907,1.14533 -1.5814,1.92267 -2.824,2.01333 l -0.2427,0.008"
           style="fill:#171717;fill-opacity:1;fill-rule:nonzero;stroke:none;stroke-width:0.133333" />
        <path
           id="path34"
           d="m 1070.8477,619.4847 c 3.84,45.02533 -22.2894,106.11066 -22.2894,106.11066 l -12.7226,-20.812 -24.7427,8.72 c 26.176,-36.62933 28.6573,-94.16933 28.6573,-94.16933 l 31.0974,0.15067"
           style="fill:#bf1c2e;fill-opacity:1;fill-rule:nonzero;stroke:none;stroke-width:0.133333" />
        <path
           id="path35"
           d="m 1035.8357,701.45003 c 1.1346,0 2.2253,0.58133 2.844,1.59466 l 9.2533,15.136 c 6.16,-16.00133 21.7093,-60.31866 19.804,-95.37733 l -24.8533,-0.12 c -0.8587,11.74934 -5.0934,52.68934 -23.6947,84.432 l 15.5387,-5.47467 c 0.3653,-0.12933 0.7386,-0.19066 1.108,-0.19066 m 12.7213,27.47866 c -1.1533,0 -2.2333,-0.59866 -2.8427,-1.59466 l -11.3146,-18.51067 -22.1987,7.82267 c -1.3733,0.488 -2.8987,0.0227 -3.772,-1.14 -0.876,-1.16267 -0.8933,-2.75734 -0.049,-3.94 25.3093,-35.41467 28.016,-91.80933 28.04,-92.37467 0.076,-1.784 1.5466,-3.19066 3.3306,-3.19066 h 0.016 l 31.0974,0.15066 c 1.7253,0.008 3.1586,1.33067 3.3053,3.05067 3.8667,45.33333 -21.4653,105.17866 -22.5453,107.70533 -0.4907,1.14533 -1.5814,1.92267 -2.824,2.01333 l -0.2427,0.008"
           style="fill:#171717;fill-opacity:1;fill-rule:nonzero;stroke:none;stroke-width:0.133333" />
        <path
           id="path36"
           d="m 1058.841,685.22336 -26.224,-8.95866 c 1.9507,-6.10267 3.54,-12.116 4.8373,-17.81867 l 26.1014,7.55333 c -1.3947,6.66534 -3.0214,13.15067 -4.7147,19.224"
           style="fill:#b31b2c;fill-opacity:1;fill-rule:nonzero;stroke:none;stroke-width:0.133333" />
        <path
           id="path37"
           d="m 1062.029,686.31269 -3.188,-1.08933 c 1.6933,-6.07333 3.32,-12.55866 4.7147,-19.224 l 2.7213,0.788 c -2.1493,11.86534 -4.248,19.52533 -4.248,19.52533 m -29.412,-10.04799 -2.412,-0.82534 c 1.568,-6.33866 2.8893,-12.35733 3.9987,-17.93466 l 3.2506,0.94133 c -1.2973,5.70267 -2.8866,11.716 -4.8373,17.81867"
           style="fill:#161616;fill-opacity:1;fill-rule:nonzero;stroke:none;stroke-width:0.133333" />
        <path
           id="path38"
           d="m 1066.7103,666.9127 -0.4333,-0.12534 c 1.256,-6.93333 2.5293,-15.30266 3.412,-24.41866 0.024,-0.0253 0.049,-0.0507 0.073,-0.0773 -0.6146,8.08 -1.5706,17.04 -3.052,24.62134 m -32.5066,-9.408 -0.3467,-0.1 c 0,0 1.5627,-7.93867 3.1533,-17.792 0.108,0.0133 0.216,0.024 0.3254,0.0333 -0.7854,5.19333 -1.808,11.212 -3.132,17.85867"
           style="fill:#151515;fill-opacity:1;fill-rule:nonzero;stroke:none;stroke-width:0.133333" />
        <path
           id="path39"
           d="m 1063.5557,665.99936 -26.1014,-7.55333 c 1.5907,-6.98933 2.74,-13.50667 3.5667,-19.14 1.256,-0.28533 2.4987,-0.69867 3.6867,-1.09333 1.556,-0.51467 3.436,-1.144 4.5653,-1.144 0.1893,0 0.356,0.0173 0.4973,0.056 0.8867,0.23733 2.4734,2.03066 3.6334,3.34133 2.396,2.70667 5.112,5.776 9.0093,5.776 1.736,0 3.2373,-0.60933 4.58,-1.52267 -0.768,7.11867 -1.976,14.29734 -3.4373,21.28"
           style="fill:#9f1a27;fill-opacity:1;fill-rule:nonzero;stroke:none;stroke-width:0.133333" />
        <path
           id="path40"
           d="m 1066.277,666.78736 -2.7213,-0.788 c 1.4613,-6.98266 2.6693,-14.16133 3.4373,-21.28 0.972,-0.66133 1.86,-1.484 2.696,-2.35066 -0.8827,9.116 -2.156,17.48533 -3.412,24.41866 m -28.8227,-8.34133 -3.2506,-0.94133 c 1.324,-6.64667 2.3466,-12.66534 3.132,-17.85867 0.248,0.02 0.496,0.0293 0.7453,0.0293 0.9733,0 1.9613,-0.14533 2.94,-0.36933 -0.8267,5.63333 -1.976,12.15067 -3.5667,19.14"
           style="fill:#131414;fill-opacity:1;fill-rule:nonzero;stroke:none;stroke-width:0.133333" />
        <path
           id="path41"
           d="m 1115.3743,589.94736 c 0,4.408 -7.9186,7.716 -9.0053,11.78134 -1.124,4.20533 4.0467,11.024 1.9147,14.70533 -2.1614,3.736 -10.6694,2.65333 -13.7,5.684 -3.0334,3.03067 -1.9494,11.54 -5.684,13.70133 -1.9787,1.144 -4.86,0.18267 -7.756,-0.77733 -2.496,-0.82933 -5.0027,-1.65733 -6.9507,-1.13733 -4.064,1.08533 -7.372,9.004 -11.78,9.004 -4.408,0 -7.716,-7.91867 -11.7813,-9.004 -1.948,-0.52 -4.4547,0.308 -6.952,1.13733 -2.896,0.96 -5.7774,1.92133 -7.7547,0.77733 -3.7347,-2.16133 -2.652,-10.67066 -5.684,-13.70133 -3.0307,-3.03067 -11.5387,-1.948 -13.7,-5.684 -2.1307,-3.68133 3.0387,-10.5 1.9147,-14.70533 -1.0867,-4.06534 -9.0054,-7.37334 -9.0054,-11.78134 0,-4.408 7.9187,-7.716 9.0054,-11.78133 1.124,-4.20533 -4.0454,-11.02267 -1.9147,-14.70533 2.1613,-3.736 10.6693,-2.652 13.7013,-5.684 3.0307,-3.03067 1.948,-11.54 5.684,-13.70133 1.9774,-1.144 4.8587,-0.18267 7.7534,0.77733 2.4973,0.82933 5.004,1.65733 6.952,1.13733 4.0653,-1.08533 7.3733,-9.00533 11.7813,-9.00533 4.408,0 7.7147,7.92 11.78,9.00533 1.948,0.52 4.4547,-0.308 6.9507,-1.13733 2.896,-0.96 5.7773,-1.92133 7.756,-0.77733 3.736,2.16133 2.6506,10.67066 5.684,13.70133 3.0306,3.032 11.5386,1.948 13.7,5.684 2.132,3.68266 -3.0387,10.5 -1.9147,14.70533 1.0867,4.06533 9.0053,7.37333 9.0053,11.78133"
           style="fill:#f9a82b;fill-opacity:1;fill-rule:nonzero;stroke:none;stroke-width:0.133333" />
        <path
           id="path42"
           d="m 1049.285,630.40603 c 0.7413,0 1.4787,0.0827 2.2067,0.27867 2.8253,0.75333 4.8986,3.09733 6.904,5.36266 1.168,1.32 3.1213,3.528 4.0173,3.528 0.896,0 2.8493,-2.208 4.016,-3.528 2.0067,-2.26533 4.0787,-4.60933 6.9027,-5.36266 2.916,-0.78 5.952,0.228 8.884,1.2 1.516,0.504 4.3453,1.44533 5.0146,1.04933 0.7147,-0.41333 1.3174,-3.36533 1.6414,-4.952 0.6133,-3.00533 1.2466,-6.11467 3.3546,-8.22133 2.1067,-2.10667 5.2134,-2.74 8.2187,-3.35334 1.5867,-0.32266 4.54,-0.92666 4.9533,-1.64266 0.392,-0.676 -0.5453,-3.49734 -1.048,-5.01334 -0.9733,-2.93333 -1.9813,-5.96666 -1.2013,-8.88266 0.7547,-2.82667 3.0973,-4.89867 5.364,-6.904 1.3187,-1.168 3.528,-3.12134 3.528,-4.01734 0,-0.896 -2.2093,-2.84933 -3.528,-4.01733 -2.2667,-2.004 -4.6093,-4.07733 -5.364,-6.90267 -0.78,-2.91733 0.228,-5.95066 1.2013,-8.88266 0.5027,-1.51734 1.44,-4.33867 1.048,-5.01467 -0.4133,-0.716 -3.3666,-1.31867 -4.9533,-1.64267 -3.0053,-0.61333 -6.112,-1.24666 -8.2187,-3.35333 -2.108,-2.10667 -2.7413,-5.21467 -3.3533,-8.22 -0.3253,-1.58666 -0.928,-4.54 -1.6427,-4.95333 -0.6826,-0.39467 -3.4986,0.54533 -5.0146,1.04933 -2.9334,0.97334 -5.9707,1.97867 -8.884,1.2 -2.8254,-0.75333 -4.8987,-3.09733 -6.9027,-5.364 -1.1667,-1.31866 -3.1213,-3.528 -4.016,-3.528 -0.8947,0 -2.8493,2.20934 -4.0173,3.528 -2.0054,2.26667 -4.0774,4.61067 -6.904,5.364 -2.9134,0.78134 -5.9494,-0.22533 -8.8854,-1.2 -1.5146,-0.504 -4.3333,-1.44133 -5.0106,-1.04933 -0.7174,0.41333 -1.32,3.36667 -1.6427,4.95466 -0.6133,3.00534 -1.2467,6.112 -3.3547,8.21867 -2.1066,2.10667 -5.2146,2.74 -8.2186,3.35333 -1.5867,0.324 -4.54,0.92667 -4.9534,1.64267 -0.3906,0.676 0.5454,3.49733 1.0494,5.01333 0.972,2.93334 1.98,5.96667 1.2,8.884 -0.7547,2.82534 -3.0974,4.89867 -5.364,6.90267 -1.32,1.168 -3.528,3.12133 -3.528,4.01733 0,0.896 2.208,2.84934 3.528,4.01734 2.2666,2.00533 4.6093,4.07733 5.364,6.904 0.78,2.916 -0.228,5.94933 -1.2,8.884 -0.504,1.51466 -1.44,4.336 -1.0494,5.012 0.4134,0.716 3.3667,1.32 4.9534,1.64266 3.004,0.61334 6.112,1.24667 8.2186,3.35334 2.108,2.10666 2.7414,5.216 3.3547,8.22133 0.3227,1.58667 0.9253,4.53867 1.6413,4.952 0.6787,0.39467 3.4987,-0.54667 5.0134,-1.04933 2.2,-0.73067 4.456,-1.47867 6.6773,-1.47867 m 13.128,15.836 c -3.8973,0 -6.6133,-3.06933 -9.0093,-5.776 -1.16,-1.31067 -2.7467,-3.104 -3.6334,-3.34133 -0.992,-0.268 -3.248,0.48666 -5.0626,1.088 -3.364,1.11733 -7.1787,2.384 -10.452,0.492 -3.3094,-1.91467 -4.12,-5.88667 -4.8347,-9.38934 -0.3573,-1.752 -0.8467,-4.15066 -1.5373,-4.83866 -0.688,-0.69067 -3.0867,-1.18 -4.8374,-1.53734 -3.504,-0.71466 -7.476,-1.52533 -9.3906,-4.836 -1.892,-3.26933 -0.6254,-7.08533 0.492,-10.452 0.6026,-1.81466 1.352,-4.072 1.088,-5.06266 -0.2374,-0.884 -2.0307,-2.472 -3.3427,-3.632 -2.7067,-2.396 -5.776,-5.11067 -5.776,-9.00934 0,-3.89866 3.0693,-6.61333 5.776,-9.00933 1.312,-1.16 3.1053,-2.748 3.3427,-3.632 0.264,-0.98933 -0.4854,-3.248 -1.088,-5.06267 -1.1174,-3.36666 -2.384,-7.18266 -0.492,-10.452 1.9146,-3.30933 5.8866,-4.12133 9.3906,-4.836 1.752,-0.35733 4.1494,-0.84666 4.8387,-1.536 0.6893,-0.688 1.1787,-3.08666 1.536,-4.83733 0.7147,-3.504 1.5253,-7.47733 4.836,-9.392 3.272,-1.89066 7.0867,-0.62533 10.4507,0.492 1.8133,0.60267 4.0693,1.35467 5.0626,1.088 0.8867,-0.236 2.4734,-2.03066 3.6334,-3.34266 2.396,-2.70667 5.1106,-5.776 9.0093,-5.776 3.8987,0 6.6133,3.06933 9.0093,5.776 1.1587,1.312 2.7467,3.10666 3.6307,3.34266 0.992,0.26667 3.2493,-0.48533 5.064,-1.088 3.364,-1.11733 7.1813,-2.38266 10.452,-0.492 3.3107,1.91467 4.12,5.88667 4.8347,9.392 0.3586,1.74933 0.8466,4.148 1.536,4.83733 0.6893,0.68934 3.088,1.17867 4.8373,1.536 3.5053,0.71467 7.4773,1.52667 9.392,4.836 1.892,3.26934 0.6253,7.08534 -0.492,10.45334 -0.6027,1.81333 -1.352,4.072 -1.088,5.06133 0.236,0.884 2.0307,2.472 3.3427,3.632 2.7066,2.396 5.776,5.11067 5.776,9.00933 0,3.89867 -3.0694,6.61334 -5.776,9.00934 -1.312,1.16 -3.1067,2.748 -3.3427,3.632 -0.264,0.98933 0.4853,3.248 1.088,5.06133 1.1173,3.368 2.384,7.184 0.492,10.45333 -1.9147,3.31067 -5.8867,4.12134 -9.392,4.836 -1.7493,0.35734 -4.148,0.84667 -4.8373,1.536 -0.6894,0.68934 -1.1787,3.088 -1.536,4.84 -0.7147,3.50267 -1.5254,7.47467 -4.8347,9.38934 -3.2693,1.89066 -7.0867,0.62533 -10.452,-0.492 -1.816,-0.60134 -4.072,-1.35734 -5.064,-1.088 -0.884,0.23733 -2.4707,2.03066 -3.6307,3.34133 -2.396,2.70667 -5.1106,5.776 -9.0093,5.776"
           style="fill:#171717;fill-opacity:1;fill-rule:nonzero;stroke:none;stroke-width:0.133333" />
        <path
           id="path43"
           d="m 1115.3743,589.94736 c 0,4.408 -7.9186,7.716 -9.0053,11.78134 -1.124,4.20533 4.0467,11.024 1.9147,14.70533 -2.1614,3.736 -10.6694,2.65333 -13.7,5.684 -3.0334,3.03067 -1.9494,11.54 -5.684,13.70133 -1.9787,1.144 -4.86,0.18267 -7.756,-0.77733 -2.496,-0.82933 -5.0027,-1.65733 -6.9507,-1.13733 -4.064,1.08533 -7.372,9.004 -11.78,9.004 -4.408,0 -7.716,-7.91867 -11.7813,-9.004 -1.948,-0.52 -4.4547,0.308 -6.952,1.13733 -2.896,0.96 -5.7774,1.92133 -7.7547,0.77733 -3.7347,-2.16133 -2.652,-10.67066 -5.684,-13.70133 -3.0307,-3.03067 -11.5387,-1.948 -13.7,-5.684 -2.1307,-3.68133 3.0387,-10.5 1.9147,-14.70533 -1.0867,-4.06534 -9.0054,-7.37334 -9.0054,-11.78134 0,-4.408 7.9187,-7.716 9.0054,-11.78133 1.124,-4.20533 -4.0454,-11.02267 -1.9147,-14.70533 2.1613,-3.736 10.6693,-2.652 13.7013,-5.684 3.0307,-3.03067 1.948,-11.54 5.684,-13.70133 1.9774,-1.144 4.8587,-0.18267 7.7534,0.77733 2.4973,0.82933 5.004,1.65733 6.952,1.13733 4.0653,-1.08533 7.3733,-9.00533 11.7813,-9.00533 4.408,0 7.7147,7.92 11.78,9.00533 1.948,0.52 4.4547,-0.308 6.9507,-1.13733 2.896,-0.96 5.7773,-1.92133 7.756,-0.77733 3.736,2.16133 2.6506,10.67066 5.684,13.70133 3.0306,3.032 11.5386,1.948 13.7,5.684 2.132,3.68266 -3.0387,10.5 -1.9147,14.70533 1.0867,4.06533 9.0053,7.37333 9.0053,11.78133"
           style="fill:#f9a82b;fill-opacity:1;fill-rule:nonzero;stroke:none;stroke-width:0.133333" />
        <path
           id="path44"
           d="m 1049.285,630.40603 c 0.7413,0 1.4787,0.0827 2.2067,0.27867 2.8253,0.75333 4.8986,3.09733 6.904,5.36266 1.168,1.32 3.1213,3.528 4.0173,3.528 0.896,0 2.8493,-2.208 4.016,-3.528 2.0067,-2.26533 4.0787,-4.60933 6.9027,-5.36266 2.916,-0.78 5.952,0.228 8.884,1.2 1.516,0.504 4.3453,1.44533 5.0146,1.04933 0.7147,-0.41333 1.3174,-3.36533 1.6414,-4.952 0.6133,-3.00533 1.2466,-6.11467 3.3546,-8.22133 2.1067,-2.10667 5.2134,-2.74 8.2187,-3.35334 1.5867,-0.32266 4.54,-0.92666 4.9533,-1.64266 0.392,-0.676 -0.5453,-3.49734 -1.048,-5.01334 -0.9733,-2.93333 -1.9813,-5.96666 -1.2013,-8.88266 0.7547,-2.82667 3.0973,-4.89867 5.364,-6.904 1.3187,-1.168 3.528,-3.12134 3.528,-4.01734 0,-0.896 -2.2093,-2.84933 -3.528,-4.01733 -2.2667,-2.004 -4.6093,-4.07733 -5.364,-6.90267 -0.78,-2.91733 0.228,-5.95066 1.2013,-8.88266 0.5027,-1.51734 1.44,-4.33867 1.048,-5.01467 -0.4133,-0.716 -3.3666,-1.31867 -4.9533,-1.64267 -3.0053,-0.61333 -6.112,-1.24666 -8.2187,-3.35333 -2.108,-2.10667 -2.7413,-5.21467 -3.3533,-8.22 -0.3253,-1.58666 -0.928,-4.54 -1.6427,-4.95333 -0.6826,-0.39467 -3.4986,0.54533 -5.0146,1.04933 -2.9334,0.97334 -5.9707,1.97867 -8.884,1.2 -2.8254,-0.75333 -4.8987,-3.09733 -6.9027,-5.364 -1.1667,-1.31866 -3.1213,-3.528 -4.016,-3.528 -0.8947,0 -2.8493,2.20934 -4.0173,3.528 -2.0054,2.26667 -4.0774,4.61067 -6.904,5.364 -2.9134,0.78134 -5.9494,-0.22533 -8.8854,-1.2 -1.5146,-0.504 -4.3333,-1.44133 -5.0106,-1.04933 -0.7174,0.41333 -1.32,3.36667 -1.6427,4.95466 -0.6133,3.00534 -1.2467,6.112 -3.3547,8.21867 -2.1066,2.10667 -5.2146,2.74 -8.2186,3.35333 -1.5867,0.324 -4.54,0.92667 -4.9534,1.64267 -0.3906,0.676 0.5454,3.49733 1.0494,5.01333 0.972,2.93334 1.98,5.96667 1.2,8.884 -0.7547,2.82534 -3.0974,4.89867 -5.364,6.90267 -1.32,1.168 -3.528,3.12133 -3.528,4.01733 0,0.896 2.208,2.84934 3.528,4.01734 2.2666,2.00533 4.6093,4.07733 5.364,6.904 0.78,2.916 -0.228,5.94933 -1.2,8.884 -0.504,1.51466 -1.44,4.336 -1.0494,5.012 0.4134,0.716 3.3667,1.32 4.9534,1.64266 3.004,0.61334 6.112,1.24667 8.2186,3.35334 2.108,2.10666 2.7414,5.216 3.3547,8.22133 0.3227,1.58667 0.9253,4.53867 1.6413,4.952 0.6787,0.39467 3.4987,-0.54667 5.0134,-1.04933 2.2,-0.73067 4.456,-1.47867 6.6773,-1.47867 m 13.128,15.836 c -3.8973,0 -6.6133,-3.06933 -9.0093,-5.776 -1.16,-1.31067 -2.7467,-3.104 -3.6334,-3.34133 -0.992,-0.268 -3.248,0.48666 -5.0626,1.088 -3.364,1.11733 -7.1787,2.384 -10.452,0.492 -3.3094,-1.91467 -4.12,-5.88667 -4.8347,-9.38934 -0.3573,-1.752 -0.8467,-4.15066 -1.5373,-4.83866 -0.688,-0.69067 -3.0867,-1.18 -4.8374,-1.53734 -3.504,-0.71466 -7.476,-1.52533 -9.3906,-4.836 -1.892,-3.26933 -0.6254,-7.08533 0.492,-10.452 0.6026,-1.81466 1.352,-4.072 1.088,-5.06266 -0.2374,-0.884 -2.0307,-2.472 -3.3427,-3.632 -2.7067,-2.396 -5.776,-5.11067 -5.776,-9.00934 0,-3.89866 3.0693,-6.61333 5.776,-9.00933 1.312,-1.16 3.1053,-2.748 3.3427,-3.632 0.264,-0.98933 -0.4854,-3.248 -1.088,-5.06267 -1.1174,-3.36666 -2.384,-7.18266 -0.492,-10.452 1.9146,-3.30933 5.8866,-4.12133 9.3906,-4.836 1.752,-0.35733 4.1494,-0.84666 4.8387,-1.536 0.6893,-0.688 1.1787,-3.08666 1.536,-4.83733 0.7147,-3.504 1.5253,-7.47733 4.836,-9.392 3.272,-1.89066 7.0867,-0.62533 10.4507,0.492 1.8133,0.60267 4.0693,1.35467 5.0626,1.088 0.8867,-0.236 2.4734,-2.03066 3.6334,-3.34266 2.396,-2.70667 5.1106,-5.776 9.0093,-5.776 3.8987,0 6.6133,3.06933 9.0093,5.776 1.1587,1.312 2.7467,3.10666 3.6307,3.34266 0.992,0.26667 3.2493,-0.48533 5.064,-1.088 3.364,-1.11733 7.1813,-2.38266 10.452,-0.492 3.3107,1.91467 4.12,5.88667 4.8347,9.392 0.3586,1.74933 0.8466,4.148 1.536,4.83733 0.6893,0.68934 3.088,1.17867 4.8373,1.536 3.5053,0.71467 7.4773,1.52667 9.392,4.836 1.892,3.26934 0.6253,7.08534 -0.492,10.45334 -0.6027,1.81333 -1.352,4.072 -1.088,5.06133 0.236,0.884 2.0307,2.472 3.3427,3.632 2.7066,2.396 5.776,5.11067 5.776,9.00933 0,3.89867 -3.0694,6.61334 -5.776,9.00934 -1.312,1.16 -3.1067,2.748 -3.3427,3.632 -0.264,0.98933 0.4853,3.248 1.088,5.06133 1.1173,3.368 2.384,7.184 0.492,10.45333 -1.9147,3.31067 -5.8867,4.12134 -9.392,4.836 -1.7493,0.35734 -4.148,0.84667 -4.8373,1.536 -0.6894,0.68934 -1.1787,3.088 -1.536,4.84 -0.7147,3.50267 -1.5254,7.47467 -4.8347,9.38934 -3.2693,1.89066 -7.0867,0.62533 -10.452,-0.492 -1.816,-0.60134 -4.072,-1.35734 -5.064,-1.088 -0.884,0.23733 -2.4707,2.03066 -3.6307,3.34133 -2.396,2.70667 -5.1106,5.776 -9.0093,5.776"
           style="fill:#171717;fill-opacity:1;fill-rule:nonzero;stroke:none;stroke-width:0.133333" />
        <path
           id="path45"
           d="m 3797.89,2177.63 c -3.67,0.8 -7.35,1.55 -11.01,2.3 -11.9,2.42 -34.05,6.95 -37.15,12.32 -0.48,0.83 -0.7,2.09 -0.7,3.68 -0.02,8.07 5.41,24.41 8.57,33.91 5.47,16.51 11.09,33.43 11.09,50.09 0,5.55 -0.63,11.08 -2.09,16.54 -5.66,21.2 -23.23,36.74 -40.23,51.78 -9.9,8.76 -26.46,23.41 -26.46,30.13 0,6.72 16.56,21.37 26.46,30.13 17,15.03 34.57,30.58 40.23,51.77 1.46,5.47 2.09,11 2.09,16.55 0,9.38 -1.78,18.85 -4.32,28.27 l 166.43,185.43 c 14.2,-4.62 28.63,-8.72 42.86,-8.72 5.56,0 11.09,0.63 16.56,2.1 21.2,5.65 36.74,23.23 51.78,40.23 8.76,9.89 23.42,26.46 30.13,26.46 6.71,0 21.37,-16.57 30.12,-26.46 15.03,-17 30.58,-34.58 51.77,-40.23 5.47,-1.46 10.99,-2.09 16.54,-2.09 16.65,0 33.59,5.61 50.09,11.09 9.48,3.15 25.75,8.58 33.86,8.58 1.61,0 2.9,-0.22 3.75,-0.71 1.4,-0.81 2.73,-2.9 3.99,-5.77 l -61.02,-67.98 c -38.65,20.15 -82.57,31.55 -129.1,31.55 -154.51,0 -280.22,-125.7 -280.22,-280.2 0,-57.32 17.3,-110.66 46.95,-155.1 l -40.97,-45.65"
           style="fill:#f9cb74;fill-opacity:1;fill-rule:nonzero;stroke:none"
           transform="matrix(0.13333333,0,0,-0.13333333,519.46234,907.06469)"
           clip-path="url(#clipPath46)" />
        <path
           id="path47"
           d="m 3872.13,2100.66 c -4.24,20.1 -9.56,40.07 -23.61,54.12 -3.1,3.09 -6.48,5.76 -10.09,8.09 l 25.39,28.28 c 14.88,-16.53 31.7,-31.3 50.09,-43.93 l -41.78,-46.56 m 412.75,459.88 c -14.5,16.91 -30.95,32.06 -49.04,45.12 l 38.06,42.4 c 4.04,-17.29 9.66,-33.91 21.83,-46.08 4.74,-4.73 10.14,-8.47 16,-11.52 l -26.85,-29.92"
           style="fill:#f9cb74;fill-opacity:1;fill-rule:nonzero;stroke:none"
           transform="matrix(0.13333333,0,0,-0.13333333,519.46234,907.06469)"
           clip-path="url(#clipPath48)" />
        <path
           id="path49"
           d="m 4072.13,2006.17 c -6.72,0 -21.37,16.56 -30.13,26.46 -15.04,16.99 -30.59,34.57 -51.78,40.22 -5.46,1.47 -10.99,2.09 -16.55,2.09 -3.49,0 -7,-0.24 -10.51,-0.69 l 31.3,34.87 c 24.67,-7.12 50.73,-10.95 77.67,-10.95 154.5,0 280.2,125.71 280.2,280.21 0,37.56 -7.43,73.43 -20.9,106.19 l 63.19,70.4 c -1.51,-8.61 -5.45,-20.5 -7.96,-28.07 -5.48,-16.49 -11.1,-33.41 -11.1,-50.07 0,-5.55 0.62,-11.08 2.09,-16.55 5.66,-21.19 23.23,-36.74 40.23,-51.77 9.89,-8.76 26.46,-23.41 26.46,-30.13 0,-6.72 -16.57,-21.37 -26.46,-30.13 -17,-15.04 -34.57,-30.58 -40.23,-51.78 -1.47,-5.46 -2.09,-10.99 -2.09,-16.54 0,-15.33 4.76,-30.89 9.79,-46.13 l -53.69,-59.82 c -13.54,-3.89 -26.16,-9.44 -35.93,-19.2 -11.88,-11.87 -17.52,-27.99 -21.54,-44.83 l -44.13,-49.17 c -3.46,1.09 -6.71,2.17 -9.41,3.07 -16.49,5.47 -33.42,11.09 -50.08,11.09 -5.56,0 -11.08,-0.63 -16.55,-2.09 -21.18,-5.65 -36.72,-23.23 -51.77,-40.22 -8.75,-9.9 -23.4,-26.46 -30.12,-26.46"
           style="fill:#f9cb74;fill-opacity:1;fill-rule:nonzero;stroke:none"
           transform="matrix(0.13333333,0,0,-0.13333333,519.46234,907.06469)"
           clip-path="url(#clipPath50)" />
        <path
           id="path51"
           d="m 1049.285,630.40603 c 0.7413,0 1.4787,0.0827 2.2067,0.27867 2.8253,0.75333 4.8986,3.09733 6.904,5.36266 1.168,1.32 3.1213,3.528 4.0173,3.528 0.896,0 2.8493,-2.208 4.016,-3.528 2.0067,-2.26533 4.0787,-4.60933 6.9027,-5.36266 2.916,-0.78 5.952,0.228 8.884,1.2 1.516,0.504 4.3453,1.44533 5.0146,1.04933 0.7147,-0.41333 1.3174,-3.36533 1.6414,-4.952 0.6133,-3.00533 1.2466,-6.11467 3.3546,-8.22133 2.1067,-2.10667 5.2134,-2.74 8.2187,-3.35334 1.5867,-0.32266 4.54,-0.92666 4.9533,-1.64266 0.392,-0.676 -0.5453,-3.49734 -1.048,-5.01334 -0.9733,-2.93333 -1.9813,-5.96666 -1.2013,-8.88266 0.7547,-2.82667 3.0973,-4.89867 5.364,-6.904 1.3187,-1.168 3.528,-3.12134 3.528,-4.01734 0,-0.896 -2.2093,-2.84933 -3.528,-4.01733 -2.2667,-2.004 -4.6093,-4.07733 -5.364,-6.90267 -0.78,-2.91733 0.228,-5.95066 1.2013,-8.88266 0.5027,-1.51734 1.44,-4.33867 1.048,-5.01467 -0.4133,-0.716 -3.3666,-1.31867 -4.9533,-1.64267 -3.0053,-0.61333 -6.112,-1.24666 -8.2187,-3.35333 -2.108,-2.10667 -2.7413,-5.21467 -3.3533,-8.22 -0.3253,-1.58666 -0.928,-4.54 -1.6427,-4.95333 -0.6826,-0.39467 -3.4986,0.54533 -5.0146,1.04933 -2.9334,0.97334 -5.9707,1.97867 -8.884,1.2 -2.8254,-0.75333 -4.8987,-3.09733 -6.9027,-5.364 -1.1667,-1.31866 -3.1213,-3.528 -4.016,-3.528 -0.8947,0 -2.8493,2.20934 -4.0173,3.528 -2.0054,2.26667 -4.0774,4.61067 -6.904,5.364 -2.9134,0.78134 -5.9494,-0.22533 -8.8854,-1.2 -1.5146,-0.504 -4.3333,-1.44133 -5.0106,-1.04933 -0.7174,0.41333 -1.32,3.36667 -1.6427,4.95466 -0.6133,3.00534 -1.2467,6.112 -3.3547,8.21867 -2.1066,2.10667 -5.2146,2.74 -8.2186,3.35333 -1.5867,0.324 -4.54,0.92667 -4.9534,1.64267 -0.3906,0.676 0.5454,3.49733 1.0494,5.01333 0.972,2.93334 1.98,5.96667 1.2,8.884 -0.7547,2.82534 -3.0974,4.89867 -5.364,6.90267 -1.32,1.168 -3.528,3.12133 -3.528,4.01733 0,0.896 2.208,2.84934 3.528,4.01734 2.2666,2.00533 4.6093,4.07733 5.364,6.904 0.78,2.916 -0.228,5.94933 -1.2,8.884 -0.504,1.51466 -1.44,4.336 -1.0494,5.012 0.4134,0.716 3.3667,1.32 4.9534,1.64266 3.004,0.61334 6.112,1.24667 8.2186,3.35334 2.108,2.10666 2.7414,5.216 3.3547,8.22133 0.3227,1.58667 0.9253,4.53867 1.6413,4.952 0.6787,0.39467 3.4987,-0.54667 5.0134,-1.04933 2.2,-0.73067 4.456,-1.47867 6.6773,-1.47867 m 13.128,15.836 c -3.8973,0 -6.6133,-3.06933 -9.0093,-5.776 -1.16,-1.31067 -2.7467,-3.104 -3.6334,-3.34133 -0.992,-0.268 -3.248,0.48666 -5.0626,1.088 -3.364,1.11733 -7.1787,2.384 -10.452,0.492 -3.3094,-1.91467 -4.12,-5.88667 -4.8347,-9.38934 -0.3573,-1.752 -0.8467,-4.15066 -1.5373,-4.83866 -0.688,-0.69067 -3.0867,-1.18 -4.8374,-1.53734 -3.504,-0.71466 -7.476,-1.52533 -9.3906,-4.836 -1.892,-3.26933 -0.6254,-7.08533 0.492,-10.452 0.6026,-1.81466 1.352,-4.072 1.088,-5.06266 -0.2374,-0.884 -2.0307,-2.472 -3.3427,-3.632 -2.7067,-2.396 -5.776,-5.11067 -5.776,-9.00934 0,-3.89866 3.0693,-6.61333 5.776,-9.00933 1.312,-1.16 3.1053,-2.748 3.3427,-3.632 0.264,-0.98933 -0.4854,-3.248 -1.088,-5.06267 -1.1174,-3.36666 -2.384,-7.18266 -0.492,-10.452 1.9146,-3.30933 5.8866,-4.12133 9.3906,-4.836 1.752,-0.35733 4.1494,-0.84666 4.8387,-1.536 0.6893,-0.688 1.1787,-3.08666 1.536,-4.83733 0.7147,-3.504 1.5253,-7.47733 4.836,-9.392 3.272,-1.89066 7.0867,-0.62533 10.4507,0.492 1.8133,0.60267 4.0693,1.35467 5.0626,1.088 0.8867,-0.236 2.4734,-2.03066 3.6334,-3.34266 2.396,-2.70667 5.1106,-5.776 9.0093,-5.776 3.8987,0 6.6133,3.06933 9.0093,5.776 1.1587,1.312 2.7467,3.10666 3.6307,3.34266 0.992,0.26667 3.2493,-0.48533 5.064,-1.088 3.364,-1.11733 7.1813,-2.38266 10.452,-0.492 3.3107,1.91467 4.12,5.88667 4.8347,9.392 0.3586,1.74933 0.8466,4.148 1.536,4.83733 0.6893,0.68934 3.088,1.17867 4.8373,1.536 3.5053,0.71467 7.4773,1.52667 9.392,4.836 1.892,3.26934 0.6253,7.08534 -0.492,10.45334 -0.6027,1.81333 -1.352,4.072 -1.088,5.06133 0.236,0.884 2.0307,2.472 3.3427,3.632 2.7066,2.396 5.776,5.11067 5.776,9.00933 0,3.89867 -3.0694,6.61334 -5.776,9.00934 -1.312,1.16 -3.1067,2.748 -3.3427,3.632 -0.264,0.98933 0.4853,3.248 1.088,5.06133 1.1173,3.368 2.384,7.184 0.492,10.45333 -1.9147,3.31067 -5.8867,4.12134 -9.392,4.836 -1.7493,0.35734 -4.148,0.84667 -4.8373,1.536 -0.6894,0.68934 -1.1787,3.088 -1.536,4.84 -0.7147,3.50267 -1.5254,7.47467 -4.8347,9.38934 -3.2693,1.89066 -7.0867,0.62533 -10.452,-0.492 -1.816,-0.60134 -4.072,-1.35734 -5.064,-1.088 -0.884,0.23733 -2.4707,2.03066 -3.6307,3.34133 -2.396,2.70667 -5.1106,5.776 -9.0093,5.776"
           style="fill:#171717;fill-opacity:1;fill-rule:nonzero;stroke:none;stroke-width:0.133333" />
        <path
           id="path52"
           d="m 1096.4397,589.94736 c 0,18.79334 -15.2334,34.028 -34.0267,34.028 -18.7947,0 -34.0293,-15.23466 -34.0293,-34.028 0,-18.79333 15.2346,-34.02666 34.0293,-34.02666 18.7933,0 34.0267,15.23333 34.0267,34.02666"
           style="fill:#f9a82b;fill-opacity:1;fill-rule:nonzero;stroke:none;stroke-width:0.133333" />
        <path
           id="path53"
           d="m 1062.413,559.25403 c -16.9267,0 -30.696,13.76933 -30.696,30.69333 0,16.924 13.7693,30.69467 30.696,30.69467 16.924,0 30.6933,-13.77067 30.6933,-30.69467 0,-16.924 -13.7693,-30.69333 -30.6933,-30.69333 m 0,68.05467 c -20.6013,0 -37.3627,-16.76134 -37.3627,-37.36134 0,-20.6 16.7614,-37.36 37.3627,-37.36 20.6,0 37.36,16.76 37.36,37.36 0,20.6 -16.76,37.36134 -37.36,37.36134"
           style="fill:#171717;fill-opacity:1;fill-rule:nonzero;stroke:none;stroke-width:0.133333" />
        <path
           id="path54"
           d="m 3852.6,2308.98 c -6.94,21.91 -10.69,45.23 -10.69,69.4 0,27.69 4.91,54.24 13.92,78.85 l 114.53,127.62 c 30.7,15.19 65.26,23.73 101.77,23.73 15.52,0 30.68,-1.54 45.35,-4.48 L 3852.6,2308.98"
           style="fill:#f8ad35;fill-opacity:1;fill-rule:nonzero;stroke:none"
           transform="matrix(0.13333333,0,0,-0.13333333,519.46234,907.06469)"
           clip-path="url(#clipPath55)" />
        <path
           id="path56"
           d="m 3833.5,2287.69 c -10.72,28.18 -16.59,58.75 -16.59,90.69 0,13.18 1,26.11 2.93,38.75 l 35.99,40.1 c -9.01,-24.61 -13.92,-51.16 -13.92,-78.85 0,-24.17 3.75,-47.49 10.69,-69.4 l -19.1,-21.29 m 136.86,297.16 36.09,40.2 c 20.96,5.57 42.97,8.53 65.68,8.53 22.26,0 43.86,-2.85 64.44,-8.2 l -19.09,-21.28 c -14.67,2.94 -29.83,4.48 -45.35,4.48 -36.51,0 -71.07,-8.54 -101.77,-23.73"
           style="fill:#252626;fill-opacity:1;fill-rule:nonzero;stroke:none"
           transform="matrix(0.13333333,0,0,-0.13333333,519.46234,907.06469)"
           clip-path="url(#clipPath57)" />
        <path
           id="path58"
           d="m 4072.13,2148.17 c -86.97,0 -162.84,48.48 -201.99,119.83 l 289.99,323.1 c 78.12,-32.44 134.67,-106.72 141.51,-194.72 l -222.68,-248.11 c -2.27,-0.06 -4.55,-0.1 -6.83,-0.1"
           style="fill:#f8ad35;fill-opacity:1;fill-rule:nonzero;stroke:none"
           transform="matrix(0.13333333,0,0,-0.13333333,519.46234,907.06469)"
           clip-path="url(#clipPath59)" />
        <path
           id="path60"
           d="m 4056.83,2123.62 c -87.02,5.15 -162.32,53.89 -204.34,124.71 l 17.65,19.67 c 39.15,-71.35 115.02,-119.83 201.99,-119.83 2.28,0 4.56,0.04 6.83,0.1 l -22.13,-24.65 m 244.81,272.76 c -6.84,88 -63.39,162.28 -141.51,194.72 l 17.64,19.66 c 75.81,-34.52 131.76,-105.03 146.01,-189.71 l -22.14,-24.67"
           style="fill:#252626;fill-opacity:1;fill-rule:nonzero;stroke:none"
           transform="matrix(0.13333333,0,0,-0.13333333,519.46234,907.06469)"
           clip-path="url(#clipPath61)" />
        <path
           id="path62"
           d="m 4108.02,2150.97 194.04,216.2 c -0.95,-19.74 -4.4,-38.85 -10.04,-57 l -128.35,-143.01 c -17.53,-7.63 -36.19,-13.13 -55.65,-16.19"
           style="fill:#f8ad35;fill-opacity:1;fill-rule:nonzero;stroke:none"
           transform="matrix(0.13333333,0,0,-0.13333333,519.46234,907.06469)"
           clip-path="url(#clipPath63)" />
        <path
           id="path64"
           d="m 4083.29,2123.41 24.73,27.56 c 19.46,3.06 38.12,8.56 55.65,16.19 l -33.54,-37.37 c -15.14,-3.51 -30.81,-5.69 -46.84,-6.38 m 208.73,186.76 c 5.64,18.15 9.09,37.26 10.04,57 l 24.76,27.58 c 0.34,-5.41 0.51,-10.87 0.51,-16.37 0,-10.47 -0.63,-20.79 -1.85,-30.93 l -33.46,-37.28"
           style="fill:#252626;fill-opacity:1;fill-rule:nonzero;stroke:none"
           transform="matrix(0.13333333,0,0,-0.13333333,519.46234,907.06469)"
           clip-path="url(#clipPath65)" />
        <path
           id="path66"
           d="m 1062.413,559.25403 c -16.9253,0 -30.696,13.76933 -30.696,30.69333 0,16.924 13.7707,30.69467 30.696,30.69467 16.924,0 30.6933,-13.77067 30.6933,-30.69467 0,-16.924 -13.7693,-30.69333 -30.6933,-30.69333 z m 0,68.05467 c -20.6013,0 -37.3627,-16.76134 -37.3627,-37.36134 0,-20.6 16.7614,-37.36 37.3627,-37.36 20.6,0 37.36,16.76 37.36,37.36 0,20.6 -16.76,37.36134 -37.36,37.36134"
           style="fill:#171717;fill-opacity:1;fill-rule:nonzero;stroke:none;stroke-width:0.133333" />
        <text
           xml:space="preserve"
           style="font-size:26.6667px;line-height:1.2;font-family:'Open Sans';-inkscape-font-specification:'Open Sans';text-align:center;text-decoration-color:#000000;letter-spacing:1px;word-spacing:0px;text-anchor:middle;white-space:pre;inline-size:307.162;display:inline;fill:none;fill-opacity:1;stroke:none;stroke-width:2;stroke-linecap:round;stroke-linejoin:round"
           x="414.32047"
           y="324.93723"
           id="text66"
           transform="translate(519.46234,119.06469)"><tspan
             x="414.32047"
             y="324.93723"
             id="tspan2"><tspan
               style="fill:#000000"
               id="tspan1">Detective especialista</tspan><tspan
               y="324.93723"
               id="tspan3"> </tspan></tspan><tspan
             x="414.32047"
             y="356.93726"
             id="tspan5"><tspan
               style="fill:#000000"
               id="tspan4">en cinemática</tspan></tspan></text>
      </g>
    </g>
  </g>
</svg>
